<?xml version="1.0" encoding="utf-8"?>
<!-- Generator: Adobe Illustrator 15.1.0, SVG Export Plug-In . SVG Version: 6.00 Build 0)  -->
<!DOCTYPE svg PUBLIC "-//W3C//DTD SVG 1.1//EN" "http://www.w3.org/Graphics/SVG/1.1/DTD/svg11.dtd">
<svg version="1.1" id="Layer_1" xmlns="http://www.w3.org/2000/svg" xmlns:xlink="http://www.w3.org/1999/xlink" x="0px" y="0px"
	 width="32px" height="32px" viewBox="0 0 32 32" enable-background="new 0 0 32 32" xml:space="preserve">
<g id="Layer_2" display="none">
	<rect x="2" y="0.626" display="inline" fill="#2FA3DC" stroke="#2FA3DC" stroke-miterlimit="10" width="28.75" height="30.748"/>
</g>
<g id="Layer_1_1_">
	<g>
		<g>
			<path fill="#F1F2F2" d="M4.587,24.268v4.914c0,0.299,0.219,0.547,0.495,0.547h3.434c0.271,0,0.496-0.244,0.496-0.547v-8.646
				l-2.494,2.759C5.988,23.874,5.313,24.211,4.587,24.268z"/>
			<path fill="#F1F2F2" d="M10.721,20.475v8.707c0,0.299,0.22,0.547,0.496,0.547h3.434c0.269,0,0.494-0.244,0.494-0.547v-5.125
				c-0.782-0.02-1.514-0.363-2.066-0.973L10.721,20.475z"/>
			<path fill="#F1F2F2" d="M16.857,23.514v5.668c0,0.299,0.219,0.547,0.496,0.547h3.433c0.271,0,0.495-0.244,0.495-0.547V18.723
				l-3.936,4.354C17.193,23.245,17.031,23.391,16.857,23.514z"/>
			<path fill="#F1F2F2" d="M27.083,12.296l-4.091,4.528V29.18c0,0.299,0.219,0.547,0.494,0.547h3.434
				c0.27,0,0.495-0.242,0.495-0.547V12.639c-0.112-0.106-0.197-0.199-0.258-0.262L27.083,12.296z"/>
			<path fill="#F1F2F2" d="M29.891,4.275c-0.162-0.192-0.41-0.292-0.725-0.292c-0.027,0-0.063,0-0.091,0
				c-1.599,0.081-3.19,0.168-4.791,0.249c-0.214,0.012-0.507,0.025-0.734,0.28c-0.075,0.082-0.131,0.175-0.177,0.287
				c-0.234,0.567,0.098,0.934,0.255,1.109l0.397,0.448c0.275,0.312,0.56,0.623,0.84,0.928l-9.658,10.692l-4.339-4.802
				c-0.259-0.286-0.608-0.448-0.979-0.448c-0.372,0-0.716,0.162-0.975,0.448l-5.78,6.39c-0.541,0.599-0.541,1.563,0,2.162
				l0.26,0.287c0.258,0.283,0.607,0.447,0.979,0.447c0.371,0,0.714-0.164,0.973-0.447l4.542-5.025l4.339,4.8
				c0.259,0.288,0.608,0.448,0.98,0.448s0.714-0.16,0.979-0.448L27.083,9.73l1.233,1.358c0.146,0.162,0.348,0.386,0.656,0.386
				c0.131,0,0.26-0.037,0.396-0.118c0.09-0.056,0.169-0.119,0.235-0.193c0.242-0.268,0.287-0.61,0.299-0.878
				c0.046-1.146,0.097-2.292,0.146-3.444l0.071-1.725C30.141,4.755,30.064,4.475,29.891,4.275z"/>
		</g>
	</g>
</g>
</svg>
