<?xml version="1.0" encoding="utf-8"?>
<!-- Generator: Adobe Illustrator 16.0.0, SVG Export Plug-In . SVG Version: 6.00 Build 0)  -->
<!DOCTYPE svg PUBLIC "-//W3C//DTD SVG 1.1//EN" "http://www.w3.org/Graphics/SVG/1.1/DTD/svg11.dtd">
<svg version="1.1" xmlns="http://www.w3.org/2000/svg" xmlns:xlink="http://www.w3.org/1999/xlink" x="0px" y="0px" width="25px"
	 height="25px" viewBox="0 0 25 25" enable-background="new 0 0 25 25" xml:space="preserve">
<g id="Layer_1" display="none">
	<g display="inline">
		<path fill="#2EA3DC" d="M20.42,24.751h2.603l-4.624-6.106c0.885-0.123,1.62-0.489,2.206-1.089c0.585-0.601,0.879-1.31,0.879-2.131
			V3.496c0-0.883-0.354-1.641-1.063-2.273c-0.713-0.632-1.585-0.944-2.607-0.944H7.647c-1.032,0-1.898,0.313-2.607,0.944
			c-0.709,0.632-1.064,1.39-1.064,2.273v11.929c0,0.821,0.302,1.538,0.906,2.153c0.603,0.613,1.33,0.971,2.181,1.065l-4.626,6.107
			H5.04l0.444-0.587h14.491L20.42,24.751z M18.873,16.656c-0.317,0.281-0.728,0.426-1.222,0.426c-0.463,0-0.853-0.145-1.171-0.426
			c-0.319-0.286-0.481-0.646-0.481-1.089c0-0.409,0.162-0.765,0.481-1.063c0.318-0.301,0.708-0.451,1.171-0.451
			c0.494,0,0.904,0.152,1.222,0.451c0.318,0.299,0.479,0.654,0.479,1.063C19.353,16.01,19.191,16.37,18.873,16.656z M6.211,3.796
			c0-0.443,0.161-0.805,0.48-1.091c0.316-0.284,0.725-0.426,1.221-0.426h9.63c0.499,0,0.912,0.142,1.252,0.426
			c0.342,0.286,0.51,0.648,0.51,1.091v3.817c0,0.442-0.171,0.807-0.51,1.089c-0.34,0.285-0.75,0.425-1.252,0.425H7.912
			c-0.498,0-0.906-0.14-1.222-0.425C6.371,8.42,6.211,8.057,6.211,7.613V3.796z M6.584,16.656c-0.323-0.286-0.48-0.646-0.48-1.089
			c0-0.409,0.157-0.765,0.48-1.063c0.323-0.301,0.727-0.454,1.226-0.454c0.458,0,0.849,0.153,1.171,0.452
			c0.318,0.301,0.479,0.656,0.479,1.065c0,0.442-0.16,0.803-0.48,1.089c-0.321,0.281-0.711,0.426-1.169,0.426
			C7.311,17.082,6.907,16.938,6.584,16.656z M6.974,22.192l1.207-1.604h9.097l1.21,1.604H6.974z"/>
	</g>
</g>
<g id="Layer_2" display="none">
	<g display="inline">
		<g id="Layer_5_21_">
			<g>
				<path fill="#2FA3DC" d="M23.124,20.993c0,0-2.736-4.648-3.228-5.481c0.56-0.169,1.153-0.317,1.4-0.739
					c0.412-0.702-0.32-1.855-0.128-2.607c0.198-0.776,1.368-1.447,1.368-2.235c0-0.768-1.21-1.665-1.408-2.436
					c-0.194-0.753,0.538-1.907,0.123-2.609c-0.412-0.702-1.789-0.645-2.355-1.184c-0.583-0.554-0.581-1.911-1.285-2.282
					c-0.706-0.373-1.854,0.38-2.638,0.202c-0.774-0.176-1.467-1.33-2.277-1.33c-0.822,0-2.128,1.308-2.333,1.355
					C9.58,1.827,8.431,1.075,7.725,1.45c-0.702,0.373-0.698,1.729-1.28,2.285C5.879,4.274,4.502,4.219,4.09,4.922
					s0.322,1.855,0.129,2.609C4.026,8.287,2.815,9.052,2.815,9.926c0,0.788,1.174,1.457,1.373,2.231
					c0.194,0.754-0.537,1.907-0.124,2.609c0.226,0.382,0.736,0.54,1.246,0.691c0.059,0.016,0.171,0.082,0.095,0.191
					c-0.348,0.596-3.156,5.383-3.156,5.383c-0.224,0.382-0.042,0.708,0.403,0.727l2.178,0.089c0.445,0.02,1.003,0.339,1.24,0.711
					l1.163,1.822c0.237,0.372,0.614,0.365,0.837-0.015c0,0,3.251-5.547,3.252-5.549c0.065-0.077,0.131-0.061,0.162-0.034
					c0.356,0.3,0.852,0.598,1.266,0.598c0.406,0,0.782-0.28,1.152-0.595c0.031-0.025,0.104-0.077,0.158,0.032
					c0.001,0.001,3.249,5.517,3.249,5.517c0.224,0.38,0.601,0.387,0.838,0.015l1.159-1.824c0.236-0.372,0.794-0.693,1.238-0.712
					l2.178-0.095C23.167,21.7,23.349,21.373,23.124,20.993z M16.296,16.003c-2.408,1.384-5.298,1.236-7.505-0.14
					c-3.234-2.047-4.299-6.283-2.354-9.599C8.403,2.91,12.726,1.726,16.15,3.57c0.02,0.009,0.036,0.019,0.055,0.029
					c0.025,0.014,0.051,0.028,0.076,0.042c1.057,0.602,1.973,1.476,2.628,2.59C20.916,9.638,19.743,14.021,16.296,16.003z"/>
				<path fill="#2FA3DC" d="M15.745,4.644c-0.01-0.006-0.021-0.011-0.031-0.017c-1.829-1.046-4.161-1.123-6.115,0.001
					c-2.901,1.667-3.888,5.356-2.2,8.222c0.515,0.875,1.22,1.573,2.035,2.074c0.069,0.044,0.139,0.086,0.21,0.127
					c2.904,1.661,6.634,0.68,8.315-2.189C19.642,9.992,18.648,6.306,15.745,4.644z M16.471,9.334l-1.017,0.979
					c-0.314,0.303-0.512,0.901-0.437,1.33l0.24,1.382c0.073,0.429-0.184,0.614-0.572,0.412l-1.257-0.653
					c-0.39-0.202-1.027-0.202-1.416,0l-1.256,0.653c-0.39,0.202-0.647,0.017-0.573-0.412l0.24-1.382
					c0.074-0.428-0.123-1.026-0.438-1.33L8.97,9.334C8.655,9.031,8.753,8.731,9.188,8.669l1.405-0.202
					c0.436-0.063,0.95-0.433,1.145-0.822l0.628-1.258c0.194-0.39,0.513-0.39,0.708,0l0.629,1.258c0.194,0.39,0.71,0.759,1.145,0.822
					l1.405,0.202C16.688,8.731,16.786,9.031,16.471,9.334z"/>
			</g>
		</g>
	</g>
</g>
<g id="Layer_3" display="none">
	<g display="inline">
		<path fill="#2FA3DC" d="M12.458,8.566c-2.225,0-4.035,1.81-4.035,4.035s1.81,4.033,4.035,4.033c2.224,0,4.034-1.809,4.034-4.033
			S14.683,8.566,12.458,8.566z"/>
		<path fill="#2FA3DC" d="M23.316,9.911h-0.903c-0.232-0.857-0.571-1.677-1.016-2.447l0.641-0.64
			c0.235-0.235,0.364-0.548,0.364-0.881c0-0.333-0.129-0.646-0.364-0.882l-2.042-2.041c-0.471-0.47-1.291-0.471-1.764,0l-0.638,0.64
			c-0.77-0.442-1.59-0.782-2.447-1.013V1.743c0-0.688-0.559-1.247-1.245-1.247h-2.888c-0.687,0-1.246,0.559-1.246,1.247v0.905
			c-0.857,0.231-1.677,0.57-2.447,1.013l-0.64-0.639c-0.47-0.471-1.292-0.47-1.763,0L2.879,5.062
			C2.644,5.297,2.514,5.611,2.514,5.944s0.13,0.646,0.365,0.881l0.64,0.64c-0.442,0.77-0.782,1.589-1.013,2.446H1.601
			c-0.688,0-1.247,0.559-1.247,1.246v2.886c0,0.688,0.559,1.247,1.247,1.247h0.905c0.231,0.857,0.57,1.677,1.013,2.447l-0.639,0.639
			c-0.235,0.235-0.365,0.548-0.365,0.882c0,0.333,0.13,0.646,0.365,0.88L4.92,22.18c0.471,0.471,1.292,0.472,1.763,0l0.64-0.639
			c0.77,0.442,1.59,0.782,2.447,1.014v0.903c0,0.688,0.559,1.247,1.245,1.247h2.887c0.687,0,1.246-0.56,1.246-1.247v-0.903
			c0.856-0.232,1.677-0.571,2.447-1.015l0.638,0.64c0.473,0.471,1.293,0.471,1.764,0l2.042-2.042
			c0.235-0.234,0.364-0.548,0.364-0.882c0-0.333-0.129-0.645-0.364-0.881l-0.641-0.639c0.444-0.771,0.783-1.59,1.016-2.446h0.903
			c0.687,0,1.246-0.56,1.246-1.247v-2.886C24.563,10.47,24.003,9.911,23.316,9.911z M17.837,12.601c0,2.967-2.412,5.379-5.378,5.379
			s-5.379-2.412-5.379-5.379c0-2.966,2.413-5.379,5.379-5.379S17.837,9.634,17.837,12.601z"/>
	</g>
</g>
<g id="Layer_4" display="none">
	<g display="inline">
		<path fill="#2FA3DC" d="M12.063,0.206c-4.667,0-8.463,3.633-8.463,8.098c0,1.798,1.2,4.731,3.669,8.964
			c1.746,2.994,3.464,5.491,3.536,5.596l1.258,1.824l1.257-1.824c0.073-0.104,1.791-2.602,3.538-5.595
			c2.468-4.233,3.669-7.167,3.669-8.965C20.526,3.838,16.729,0.206,12.063,0.206z M12.063,12.447c-2.423,0-4.387-1.879-4.387-4.198
			c0-2.318,1.964-4.198,4.387-4.198c2.424,0,4.388,1.879,4.388,4.198C16.45,10.568,14.486,12.447,12.063,12.447z"/>
	</g>
</g>
<g id="Layer_5" display="none">
	<g id="Search" display="inline">
		<path fill="#2FA3DC" d="M24.234,21.337l-5.324-5.321c-0.028-0.028-0.061-0.049-0.09-0.074c1.046-1.589,1.658-3.491,1.658-5.535
			c0-5.563-4.509-10.072-10.072-10.072S0.335,4.843,0.335,10.406c0,5.563,4.509,10.071,10.072,10.071
			c2.044,0,3.946-0.611,5.535-1.658c0.026,0.029,0.047,0.063,0.074,0.091l5.322,5.323c0.8,0.798,2.096,0.798,2.896,0
			C25.032,23.434,25.032,22.138,24.234,21.337z M10.407,16.985c-3.634,0-6.58-2.945-6.58-6.579c0-3.635,2.946-6.58,6.58-6.58
			s6.58,2.946,6.58,6.58C16.986,14.04,14.041,16.985,10.407,16.985z"/>
	</g>
</g>
<g id="Layer_6">
	<g>
		<g id="Layer_1_17_">
			<g>
				<path fill="#2FA3DC" d="M24.833,12.522c0-6.742-5.522-12.23-12.312-12.23S0.208,5.78,0.208,12.522
					c0,6.743,5.523,12.229,12.313,12.229c0.618,0,1.12-0.498,1.12-1.112V13.634h10.073C24.332,13.634,24.833,13.137,24.833,12.522z"
					/>
				<path fill="#2FA3DC" d="M24.211,14.745h-8.893c-0.309,0-0.558,0.249-0.558,0.557v8.831c0,0.158,0.067,0.308,0.186,0.413
					c0.103,0.094,0.235,0.143,0.372,0.143c0.021,0,0.043,0,0.063-0.004c4.896-0.54,8.841-4.459,9.386-9.322
					c0.016-0.157-0.032-0.315-0.139-0.435C24.521,14.813,24.369,14.745,24.211,14.745z M15.878,23.493v-7.637h7.688
					C22.867,19.715,19.763,22.797,15.878,23.493z"/>
			</g>
		</g>
	</g>
</g>
</svg>
