<?xml version="1.0" encoding="utf-8"?>
<!-- Generator: Adobe Illustrator 15.1.0, SVG Export Plug-In  -->
<!DOCTYPE svg PUBLIC "-//W3C//DTD SVG 1.1//EN" "http://www.w3.org/Graphics/SVG/1.1/DTD/svg11.dtd" [
	<!ENTITY ns_flows "http://ns.adobe.com/Flows/1.0/">
]>
<svg version="1.1"
	 xmlns="http://www.w3.org/2000/svg" xmlns:xlink="http://www.w3.org/1999/xlink" xmlns:a="http://ns.adobe.com/AdobeSVGViewerExtensions/3.0/"
	 x="0px" y="0px" width="100px" height="31px" viewBox="-1 -1 100 31" enable-background="new -1 -1 100 31" xml:space="preserve">
<defs>
</defs>
<path fill="#03A6ED" d="M98,24c0,2.762-2.238,5-5,5H5c-2.761,0-5-2.238-5-5V5c0-2.761,2.239-5,5-5h88c2.762,0,5,2.239,5,5V24z"/>
<g enable-background="new    ">
	<path fill="#FFFFFF" d="M23.325,19.236c-0.791,0.41-1.775,0.615-2.952,0.615c-1.523,0-2.744-0.48-3.662-1.443
		c-0.918-0.961-1.377-2.224-1.377-3.786c0-1.68,0.517-3.037,1.549-4.072c1.033-1.035,2.338-1.553,3.915-1.553
		c1.016,0,1.858,0.145,2.527,0.433v1.729c-0.708-0.42-1.489-0.631-2.344-0.631c-1.138,0-2.06,0.364-2.765,1.092
		s-1.058,1.699-1.058,2.915c0,1.157,0.33,2.079,0.989,2.765c0.659,0.687,1.526,1.029,2.6,1.029c0.991,0,1.851-0.234,2.578-0.703
		V19.236z"/>
	<path fill="#FFFFFF" d="M26.833,19.676h-1.707V8.572h1.707V19.676z"/>
	<path fill="#FFFFFF" d="M29.902,10.602c-0.278,0-0.516-0.091-0.714-0.271c-0.197-0.181-0.296-0.41-0.296-0.688
		s0.099-0.51,0.296-0.696c0.198-0.185,0.436-0.277,0.714-0.277c0.288,0,0.532,0.093,0.732,0.277c0.2,0.187,0.3,0.418,0.3,0.696
		c0,0.264-0.1,0.489-0.3,0.678C30.435,10.507,30.19,10.602,29.902,10.602z M30.745,19.676h-1.699v-7.5h1.699V19.676z"/>
	<path fill="#FFFFFF" d="M38.333,19.332c-0.601,0.346-1.311,0.52-2.131,0.52c-1.113,0-2.012-0.348-2.695-1.044
		c-0.684-0.695-1.025-1.598-1.025-2.706c0-1.235,0.367-2.228,1.102-2.978C34.317,12.375,35.3,12,36.531,12
		c0.684,0,1.287,0.12,1.809,0.359v1.582c-0.522-0.391-1.079-0.586-1.67-0.586c-0.718,0-1.306,0.242-1.765,0.729
		c-0.459,0.485-0.688,1.122-0.688,1.908c0,0.775,0.216,1.389,0.648,1.838c0.432,0.449,1.012,0.674,1.739,0.674
		c0.61,0,1.187-0.217,1.729-0.652V19.332z"/>
	<path fill="#FFFFFF" d="M46.821,19.676h-2.153l-2.915-3.604h-0.029v3.604h-1.707V8.572h1.707v7.039h0.029l2.754-3.436h2.043
		l-3.098,3.618L46.821,19.676z"/>
	<path fill="#FFFFFF" d="M60.643,19.676h-1.751V15.12h-4.944v4.556h-1.742V9.173h1.742v4.417h4.944V9.173h1.751V19.676z"/>
	<path fill="#FFFFFF" d="M69.395,16.387h-5.112c0.02,0.694,0.233,1.229,0.642,1.604c0.406,0.376,0.967,0.563,1.68,0.563
		c0.801,0,1.536-0.238,2.205-0.717v1.369c-0.684,0.43-1.587,0.645-2.71,0.645c-1.104,0-1.97-0.341-2.597-1.021
		c-0.627-0.682-0.941-1.64-0.941-2.875c0-1.167,0.346-2.118,1.037-2.853C64.288,12.367,65.146,12,66.172,12s1.818,0.33,2.381,0.988
		c0.561,0.66,0.842,1.575,0.842,2.747V16.387z M67.754,15.186c-0.005-0.609-0.148-1.085-0.432-1.424
		c-0.283-0.34-0.674-0.51-1.172-0.51c-0.488,0-0.902,0.179-1.242,0.535s-0.548,0.823-0.626,1.398H67.754z"/>
	<path fill="#FFFFFF" d="M75.363,13.795c-0.205-0.162-0.5-0.242-0.886-0.242c-0.503,0-0.923,0.227-1.26,0.682
		c-0.337,0.453-0.505,1.071-0.505,1.853v3.589h-1.699v-7.5h1.699v1.545h0.029c0.166-0.527,0.42-0.938,0.766-1.233
		c0.344-0.296,0.729-0.443,1.152-0.443c0.309,0,0.543,0.047,0.703,0.14V13.795z"/>
	<path fill="#FFFFFF" d="M82.783,16.387h-5.112c0.02,0.694,0.233,1.229,0.642,1.604c0.406,0.376,0.967,0.563,1.68,0.563
		c0.801,0,1.536-0.238,2.205-0.717v1.369c-0.684,0.43-1.587,0.645-2.71,0.645c-1.104,0-1.97-0.341-2.597-1.021
		c-0.627-0.682-0.941-1.64-0.941-2.875c0-1.167,0.346-2.118,1.037-2.853C77.677,12.367,78.535,12,79.561,12s1.818,0.33,2.381,0.988
		c0.561,0.66,0.842,1.575,0.842,2.747V16.387z M81.143,15.186c-0.005-0.609-0.148-1.085-0.432-1.424
		c-0.283-0.34-0.674-0.51-1.172-0.51c-0.488,0-0.902,0.179-1.242,0.535s-0.548,0.823-0.626,1.398H81.143z"/>
</g>
</svg>
