<?xml version="1.0" encoding="utf-8"?>
<!-- Generator: Adobe Illustrator 15.1.0, SVG Export Plug-In . SVG Version: 6.00 Build 0)  -->
<!DOCTYPE svg PUBLIC "-//W3C//DTD SVG 1.1//EN" "http://www.w3.org/Graphics/SVG/1.1/DTD/svg11.dtd">
<svg version="1.1" xmlns="http://www.w3.org/2000/svg" xmlns:xlink="http://www.w3.org/1999/xlink" x="0px" y="0px" width="25px"
	 height="34.875px" viewBox="0 0 25 34.875" enable-background="new 0 0 25 34.875" xml:space="preserve">
<g id="Layer_2" display="none">
	<rect x="-1.458" y="0.167" display="inline" fill="#EC008C" width="32.333" height="51.209"/>
</g>
<g id="Layer_1">
	<g>
		<path fill="#2EA3DC" d="M23.021,3.446v-0.22c0-0.509-0.414-0.922-0.923-0.922H2.902c-0.51,0-0.923,0.413-0.923,0.922v0.225
			l10.516,7.732L23.021,3.446z"/>
		<path fill="#2EA3DC" d="M9.059,9.255l-6.914,6.831c-0.104-0.148-0.165-0.328-0.165-0.525V4.051L9.059,9.255z"/>
		<path fill="#2EA3DC" d="M15.515,9.562l6.936,6.852c-0.109,0.044-0.229,0.069-0.353,0.069H2.902c-0.135,0-0.264-0.029-0.38-0.081
			l6.936-6.853l3.037,2.232L15.515,9.562z"/>
		<path fill="#2EA3DC" d="M23.021,4.044V15.56c0,0.207-0.067,0.396-0.181,0.549l-6.926-6.84L23.021,4.044z"/>
	</g>
	<g>
		<path fill="#FFFFFF" d="M23.167,19.625v-0.223c0-0.517-0.42-0.936-0.936-0.936H2.769c-0.517,0-0.936,0.419-0.936,0.936v0.229
			l10.664,7.841L23.167,19.625z"/>
		<path fill="#FFFFFF" d="M9.012,25.516L2,32.443c-0.105-0.15-0.167-0.333-0.167-0.533V20.238L9.012,25.516z"/>
		<path fill="#FFFFFF" d="M15.558,25.828l7.031,6.948c-0.111,0.045-0.232,0.069-0.357,0.069H2.769c-0.137,0-0.268-0.028-0.385-0.082
			l7.033-6.949l3.079,2.264L15.558,25.828z"/>
		<path fill="#FFFFFF" d="M23.167,20.232V31.91c0,0.21-0.068,0.402-0.184,0.557L15.96,25.53L23.167,20.232z"/>
	</g>
	<rect x="11.625" y="32.85" display="none" fill="#068480" width="1.031" height="2"/>
	<rect x="11.604" y="5.125" fill="#2EA3DC" width="1.792" height="3.5"/>
</g>
</svg>
