<?xml version="1.0" encoding="utf-8"?>
<!-- Generator: Adobe Illustrator 16.0.0, SVG Export Plug-In . SVG Version: 6.00 Build 0)  -->
<!DOCTYPE svg PUBLIC "-//W3C//DTD SVG 1.1//EN" "http://www.w3.org/Graphics/SVG/1.1/DTD/svg11.dtd">
<svg version="1.1" xmlns="http://www.w3.org/2000/svg" xmlns:xlink="http://www.w3.org/1999/xlink" x="0px" y="0px" width="25px"
	 height="25px" viewBox="0 0 25 25" enable-background="new 0 0 25 25" xml:space="preserve">
<g id="Layer_1" display="none">
	<g display="inline">
		<path fill="#2FA3DC" d="M12.526,12.582c-2.048,0-3.713,1.734-3.713,3.864c0,2.131,1.666,3.864,3.713,3.864
			s3.713-1.733,3.713-3.864C16.239,14.315,14.574,12.582,12.526,12.582z"/>
		<path fill="#2FA3DC" d="M22.87,7.892h-1.471c0.238-0.195,0.392-0.498,0.392-0.838v-4.32c0-0.588-0.458-1.065-1.023-1.065h-6.049
			c-0.563,0-1.022,0.477-1.022,1.065v4.32c0,0.34,0.154,0.643,0.392,0.838h-8.01V7.107c0-0.66-0.513-1.194-1.147-1.194H4.086
			c-0.634,0-1.147,0.534-1.147,1.194v0.785H2.183c-1.119,0-2.026,0.944-2.026,2.109V22.89c0,1.165,0.907,2.11,2.026,2.11H22.87
			c1.118,0,2.026-0.945,2.026-2.11V10.001C24.896,8.836,23.988,7.892,22.87,7.892z M15.742,3.799h4.002v2.19h-4.002V3.799z
			 M12.526,23.719c-3.854,0-6.988-3.263-6.988-7.273c0-4.01,3.135-7.272,6.988-7.272c3.853,0,6.988,3.262,6.988,7.272
			C19.515,20.456,16.379,23.719,12.526,23.719z"/>
	</g>
</g>
<g id="Layer_2" display="none">
	<g display="inline">
		<g>
			<path fill="#2FA3DC" d="M23.918,8.488l-0.842-0.291L22.741,5.76c-0.193-1.381-1.346-2.416-2.737-2.461
				c-0.163-0.005-0.321,0.005-0.483,0.025l-7.457,1.04L6.768,2.519c-0.84-0.295-1.763,0.153-2.059,0.994L4.026,5.48L3.007,5.623
				C2.253,5.73,1.585,6.122,1.121,6.729c-0.458,0.606-0.657,1.36-0.55,2.115l0.652,4.688l-1.081,3.099
				c-0.295,0.842,0.153,1.765,0.994,2.061l0.841,0.29l0.336,2.435c0.194,1.382,1.34,2.417,2.737,2.463
				c0.163,0.005,0.321-0.006,0.484-0.025l7.457-1.041l5.296,1.847c0.841,0.295,1.762-0.153,2.058-0.994l0.684-1.963l1.02-0.143
				c1.56-0.213,2.65-1.66,2.431-3.215l-0.651-4.694l1.079-3.099C25.208,9.705,24.759,8.783,23.918,8.488z M3.093,8.217
				c0.041-0.056,0.123-0.127,0.25-0.147L19.86,5.776c0.021-0.005,0.047-0.005,0.066-0.005c0.158,0.005,0.337,0.117,0.362,0.326
				l1.306,9.408l-3.508-2.655c-0.347-0.265-0.846-0.194-1.111,0.152l-2.236,2.956l-5.208-3.944
				c-0.347-0.266-0.846-0.194-1.112,0.152l-4.133,5.464L3.017,8.497C3.002,8.37,3.047,8.273,3.093,8.217z"/>
			<path fill="#2FA3DC" d="M14.33,7.921c1.036,0,1.877,0.84,1.877,1.875s-0.841,1.875-1.877,1.875c-1.033,0-1.874-0.84-1.874-1.875
				S13.297,7.921,14.33,7.921z"/>
		</g>
	</g>
</g>
<g id="Layer_3">
	<g>
		<path fill="#2FA3DC" d="M6.781,5.998h7.565c0.232,0,0.42-0.188,0.42-0.419c0-0.232-0.188-0.42-0.42-0.42H6.781
			c-0.232,0-0.42,0.188-0.42,0.42C6.361,5.81,6.549,5.998,6.781,5.998z"/>
		<path fill="#2FA3DC" d="M6.781,14.388h7.565c0.232,0,0.42-0.188,0.42-0.42s-0.188-0.419-0.42-0.419H6.781
			c-0.232,0-0.42,0.188-0.42,0.419S6.549,14.388,6.781,14.388z"/>
		<path fill="#2FA3DC" d="M15.187,11.451c0,0.231,0.189,0.419,0.421,0.419h2.942c0.231,0,0.42-0.188,0.42-0.419
			c0-0.232-0.188-0.419-0.42-0.419h-2.942C15.376,11.032,15.187,11.219,15.187,11.451z"/>
		<path fill="#2FA3DC" d="M6.781,8.934h2.521c0.232,0,0.42-0.188,0.42-0.419c0-0.231-0.188-0.419-0.42-0.419H6.781
			c-0.232,0-0.42,0.188-0.42,0.419C6.361,8.747,6.549,8.934,6.781,8.934z"/>
		<path fill="#2FA3DC" d="M13.086,8.515c0,0.232,0.188,0.419,0.421,0.419h2.942c0.231,0,0.419-0.188,0.419-0.419
			c0-0.231-0.188-0.419-0.419-0.419h-2.942C13.274,8.095,13.086,8.284,13.086,8.515z"/>
		<path fill="#2FA3DC" d="M11.704,8.813c0.075-0.08,0.122-0.188,0.122-0.298c0-0.109-0.047-0.218-0.122-0.297
			c-0.161-0.156-0.438-0.156-0.597,0c-0.076,0.079-0.123,0.188-0.123,0.297c0,0.11,0.046,0.219,0.123,0.298
			c0.08,0.075,0.189,0.121,0.298,0.121C11.514,8.934,11.623,8.888,11.704,8.813z"/>
		<path fill="#2FA3DC" d="M8.463,11.451c0,0.231,0.188,0.419,0.42,0.419h4.624c0.232,0,0.42-0.188,0.42-0.419
			c0-0.232-0.188-0.419-0.42-0.419H8.883C8.65,11.032,8.463,11.219,8.463,11.451z"/>
		<path fill="#2FA3DC" d="M6.781,11.871c0.11,0,0.219-0.046,0.299-0.122c0.076-0.08,0.122-0.189,0.122-0.298
			s-0.046-0.218-0.122-0.298c-0.156-0.154-0.442-0.154-0.598,0c-0.075,0.081-0.121,0.189-0.121,0.298s0.046,0.218,0.121,0.298
			C6.563,11.825,6.672,11.871,6.781,11.871z"/>
		<path fill="#2FA3DC" d="M18.55,8.934c0.109,0,0.219-0.046,0.298-0.121c0.075-0.08,0.122-0.188,0.122-0.298
			c0-0.109-0.047-0.218-0.122-0.297c-0.155-0.156-0.44-0.156-0.597,0c-0.075,0.079-0.122,0.188-0.122,0.297
			c0,0.11,0.047,0.219,0.122,0.298C18.331,8.888,18.44,8.934,18.55,8.934z"/>
		<path fill="#2FA3DC" d="M16.149,13.671c-0.075,0.079-0.121,0.188-0.121,0.297c0,0.11,0.046,0.219,0.121,0.298
			c0.079,0.076,0.189,0.122,0.3,0.122c0.107,0,0.217-0.046,0.298-0.122c0.074-0.079,0.121-0.188,0.121-0.298
			c0-0.108-0.047-0.218-0.121-0.297C16.592,13.516,16.31,13.516,16.149,13.671z"/>
		<path fill="#2FA3DC" d="M18.251,13.671c-0.075,0.079-0.122,0.188-0.122,0.297c0,0.11,0.047,0.219,0.122,0.298
			c0.08,0.076,0.189,0.122,0.299,0.122s0.219-0.046,0.298-0.122c0.075-0.079,0.122-0.188,0.122-0.298
			c0-0.108-0.047-0.218-0.122-0.297C18.692,13.516,18.407,13.516,18.251,13.671z"/>
		<g>
			<path fill="#2FA3DC" d="M4.68,16.064V9.208V0.964h12.608V3.62c0,0.386,0.315,0.7,0.703,0.7h2.659v4.888v6.856h3.616l-2.774-5.262
				V3.89l0.046-0.118l-3.503-3.496l-0.152-0.151H3.839v10.677l-2.776,5.262H4.68z M18.129,1.557l1.928,1.924h-1.928V1.557z"/>
			<path fill="#2FA3DC" d="M17.914,16.904c-0.113,0-0.205,0.092-0.205,0.204V18.8c0,0.573-0.468,1.041-1.046,1.041H8.667
				c-0.576,0-1.044-0.468-1.044-1.041v-1.691c0-0.112-0.092-0.204-0.204-0.204H0.897v6.449c0,0.84,0.683,1.521,1.523,1.521h20.488
				c0.841,0,1.524-0.682,1.524-1.521v-6.449H17.914z"/>
		</g>
	</g>
</g>
</svg>
