<?xml version="1.0" encoding="utf-8"?>
<!-- Generator: Adobe Illustrator 16.0.0, SVG Export Plug-In . SVG Version: 6.00 Build 0)  -->
<!DOCTYPE svg PUBLIC "-//W3C//DTD SVG 1.1//EN" "http://www.w3.org/Graphics/SVG/1.1/DTD/svg11.dtd">
<svg version="1.1" xmlns="http://www.w3.org/2000/svg" xmlns:xlink="http://www.w3.org/1999/xlink" x="0px" y="0px" width="20px"
	 height="23px" viewBox="0 0 20 23" enable-background="new 0 0 20 23" xml:space="preserve">
<g id="Layer_1">
	<g>
		<g>
			<path fill="#30A1DB" d="M2.102,23h15.796c0.955,0,1.736-0.758,1.736-1.685v-9.161c0-0.927-0.781-1.684-1.736-1.684h-1.223V6.479
				C16.675,2.908,13.679,0,9.999,0C6.32,0,3.324,2.908,3.324,6.479v3.991H2.102c-0.955,0-1.735,0.757-1.735,1.684v9.161
				C0.366,22.242,1.146,23,2.102,23z M4.512,6.479c0-2.936,2.462-5.327,5.487-5.327c3.025,0,5.488,2.391,5.488,5.327v3.991H4.512
				V6.479z M1.554,12.154c0-0.292,0.247-0.532,0.547-0.532h15.796c0.299,0,0.547,0.24,0.547,0.532v9.161
				c0,0.293-0.248,0.531-0.547,0.531H2.102c-0.3,0-0.547-0.238-0.547-0.531V12.154z"/>
			<path fill="#2FA3DC" d="M9.999,19.08c1.334,0,2.42-1.054,2.42-2.347c0-1.295-1.086-2.349-2.42-2.349
				c-1.333,0-2.418,1.054-2.418,2.349C7.581,18.031,8.666,19.08,9.999,19.08z M9.999,15.542c0.68,0,1.232,0.537,1.232,1.195
				c0,0.659-0.553,1.194-1.232,1.194c-0.679,0-1.23-0.535-1.23-1.194C8.769,16.079,9.32,15.542,9.999,15.542z"/>
		</g>
	</g>
</g>
<g id="Layer_2" display="none">
	<path display="inline" fill="#2FA3DC" d="M0.573,22.06h10.702c0.821,0.504,1.788,0.801,2.826,0.801c2.937,0,5.325-2.34,5.325-5.214
		c0-2.875-2.389-5.215-5.325-5.215c-0.299,0-0.589,0.03-0.875,0.077c0.479-0.679,0.868-1.428,1.149-2.235
		c0.579-0.26,0.954-0.819,0.954-1.451V7.218c0-0.386-0.147-0.76-0.411-1.052V4.033c0.024-0.22,0.114-1.534-0.854-2.617
		C13.222,0.476,11.857,0,10.004,0C8.152,0,6.787,0.476,5.946,1.416C5.358,2.072,5.16,2.812,5.101,3.342
		C5.098,3.341,5.095,3.34,5.092,3.338c0,0.016,0,0.029-0.001,0.043c-0.005,0.25-0.007,0.502-0.021,0.754
		c0.004,0.016,0.006,0.03,0.004,0.044c0,0.004,0,0.007-0.001,0.011c0.003,0.022,0.003,0.045,0,0.068
		c0.005,0.003,0.01,0.006,0.015,0.009v1.897C4.827,6.458,4.679,6.833,4.679,7.218v1.605c0,0.121,0.015,0.241,0.042,0.358
		c0.01,0.046,0.033,0.089,0.048,0.134c0.023,0.067,0.041,0.136,0.072,0.2c0,0.001,0,0.001,0.001,0.002
		C4.947,9.729,5.1,9.918,5.292,10.07c0.002,0.007,0.004,0.014,0.006,0.021c0.025,0.092,0.051,0.184,0.078,0.273l0.034,0.104
		c0.006,0.019,0.013,0.038,0.019,0.056c0.014,0.044,0.028,0.087,0.042,0.129c0.025,0.07,0.05,0.143,0.081,0.222
		c0.012,0.033,0.026,0.063,0.039,0.095c0.034,0.084,0.067,0.164,0.103,0.245c0.008,0.02,0.016,0.041,0.024,0.06l0.022,0.05
		c0.011,0.023,0.022,0.044,0.033,0.067c0.04,0.086,0.079,0.169,0.121,0.25c0.006,0.013,0.013,0.027,0.019,0.04
		c0.026,0.05,0.052,0.098,0.078,0.146c0.044,0.083,0.088,0.161,0.131,0.235c0.021,0.037,0.042,0.073,0.063,0.108
		c0.059,0.1,0.115,0.19,0.169,0.275c0.012,0.016,0.023,0.036,0.035,0.053c0.099,0.15,0.185,0.273,0.256,0.366
		c0.019,0.025,0.035,0.048,0.051,0.069c0.009,0.012,0.021,0.028,0.029,0.04v1.325c0,0.389-0.216,0.746-0.564,0.933l-1.084,0.579
		l-0.266,0.142l-2.305,1.23c-1.188,0.634-1.926,1.851-1.926,3.176v0.877 M0.583,21.235v0.02c0,0-0.001,0.26-0.001,0.271
		 M1.402,21.255v-0.896c0-1.031,0.574-1.979,1.499-2.473l3.654-1.951c0.612-0.327,0.992-0.954,0.992-1.636v-1.611l-0.079-0.094
		l-0.017-0.019c0,0-0.025-0.029-0.067-0.082c-0.002-0.004-0.005-0.008-0.008-0.011c-0.021-0.027-0.047-0.061-0.076-0.101
		c0,0,0-0.001-0.001-0.001c-0.061-0.084-0.137-0.192-0.222-0.321c-0.002-0.003-0.004-0.006-0.006-0.01
		c-0.04-0.062-0.082-0.129-0.126-0.198c-0.002-0.007-0.006-0.01-0.009-0.018c-0.092-0.151-0.19-0.323-0.289-0.514l0,0
		c-0.052-0.103-0.104-0.21-0.155-0.322c-0.008-0.016-0.015-0.031-0.022-0.046c-0.022-0.051-0.044-0.104-0.068-0.158
		c-0.008-0.02-0.017-0.04-0.024-0.059c-0.021-0.053-0.043-0.106-0.066-0.167c-0.042-0.109-0.081-0.223-0.119-0.34l-0.022-0.071
		c-0.002-0.009-0.006-0.016-0.008-0.025c-0.038-0.127-0.075-0.257-0.106-0.389l-0.037-0.16l-0.14-0.087
		c-0.237-0.15-0.38-0.401-0.38-0.672V7.218c0-0.225,0.098-0.435,0.275-0.591l0.135-0.119V3.869L5.897,3.86
		C5.883,3.57,5.901,2.683,6.562,1.944c0.679-0.758,1.837-1.142,3.442-1.142c1.599,0,2.755,0.38,3.436,1.134
		c0.798,0.882,0.665,2.011,0.665,2.021l-0.004,2.55l0.136,0.12c0.177,0.156,0.274,0.366,0.274,0.591v1.605
		c0,0.35-0.235,0.656-0.584,0.761l-0.202,0.061l-0.066,0.199c-0.274,0.834-0.665,1.605-1.161,2.29
		c-0.122,0.17-0.24,0.319-0.344,0.434l-0.101,0.114v0.152c-0.104,0.042-0.203,0.092-0.304,0.14
		c-0.024,0.013-0.051,0.024-0.075,0.036c-0.09,0.045-0.177,0.094-0.263,0.143c-0.047,0.026-0.091,0.054-0.135,0.079
		c-0.079,0.049-0.156,0.098-0.232,0.151c-0.049,0.034-0.097,0.071-0.145,0.105c-0.118,0.088-0.232,0.181-0.343,0.277
		c-0.053,0.047-0.106,0.091-0.157,0.14c-0.059,0.056-0.115,0.113-0.171,0.173c-0.047,0.048-0.093,0.098-0.139,0.148
		c-0.054,0.061-0.107,0.122-0.159,0.186c-0.042,0.052-0.081,0.105-0.121,0.159c-0.085,0.114-0.166,0.231-0.242,0.352
		c-0.035,0.057-0.072,0.111-0.105,0.171c-0.042,0.07-0.079,0.144-0.116,0.217c-0.031,0.06-0.06,0.119-0.089,0.18
		c-0.034,0.073-0.067,0.146-0.098,0.222c-0.03,0.073-0.057,0.148-0.083,0.223c-0.031,0.088-0.061,0.175-0.087,0.264
		c-0.033,0.11-0.063,0.222-0.089,0.336c-0.013,0.058-0.022,0.115-0.033,0.174c-0.019,0.102-0.036,0.205-0.048,0.309
		c-0.007,0.052-0.013,0.104-0.019,0.156c-0.015,0.156-0.025,0.313-0.025,0.473c0,0.174,0.01,0.349,0.027,0.52
		c0.007,0.063,0.02,0.128,0.029,0.191c0.015,0.105,0.028,0.21,0.049,0.314c0.014,0.07,0.035,0.138,0.052,0.207
		c0.024,0.096,0.046,0.193,0.076,0.287c0.021,0.063,0.044,0.126,0.067,0.188c0.034,0.098,0.068,0.196,0.109,0.29
		c0.022,0.054,0.049,0.104,0.073,0.157c0.047,0.102,0.095,0.203,0.149,0.302c0.024,0.044,0.05,0.084,0.075,0.128
		c0.061,0.102,0.122,0.205,0.19,0.304c0.025,0.036,0.053,0.071,0.079,0.108c0.072,0.1,0.146,0.198,0.225,0.295
		c0.029,0.033,0.062,0.067,0.092,0.103c0.063,0.071,0.124,0.146,0.191,0.214H1.402z M14.102,22.06c-0.926,0-1.786-0.276-2.502-0.746
		c-0.141-0.093-0.271-0.192-0.397-0.297c-0.045-0.037-0.087-0.075-0.13-0.113c-0.08-0.071-0.159-0.147-0.233-0.224
		c-0.047-0.049-0.093-0.099-0.139-0.149c-0.067-0.075-0.131-0.153-0.192-0.235c-0.039-0.051-0.079-0.099-0.117-0.151
		c-0.091-0.129-0.177-0.261-0.253-0.399c-0.017-0.031-0.031-0.064-0.048-0.098c-0.06-0.114-0.115-0.229-0.165-0.35
		c-0.021-0.053-0.04-0.105-0.06-0.159c-0.039-0.104-0.074-0.212-0.104-0.318c-0.016-0.056-0.031-0.113-0.045-0.168
		C9.69,18.537,9.668,18.42,9.65,18.303c-0.007-0.049-0.017-0.099-0.022-0.149c-0.02-0.167-0.032-0.336-0.032-0.507
		c0-0.137,0.009-0.271,0.021-0.404c0.004-0.048,0.011-0.094,0.017-0.141c0.011-0.084,0.024-0.168,0.039-0.25
		c0.011-0.056,0.022-0.112,0.034-0.167c0.016-0.073,0.036-0.143,0.057-0.214c0.017-0.058,0.031-0.118,0.05-0.175
		c0.035-0.108,0.075-0.213,0.118-0.316c0.03-0.069,0.063-0.139,0.096-0.206c0.022-0.046,0.043-0.091,0.067-0.136
		c0.036-0.067,0.074-0.135,0.113-0.201c0.025-0.042,0.05-0.081,0.077-0.122c0.042-0.066,0.084-0.132,0.13-0.195
		c0.022-0.032,0.049-0.065,0.073-0.097c0.095-0.125,0.198-0.246,0.307-0.362c0.025-0.026,0.048-0.054,0.075-0.08
		c0.055-0.058,0.115-0.111,0.174-0.165c0.034-0.03,0.067-0.062,0.104-0.092c0.062-0.052,0.123-0.104,0.189-0.153
		c0.031-0.024,0.065-0.049,0.099-0.073c0.071-0.051,0.143-0.102,0.218-0.149c0.006-0.004,0.011-0.007,0.017-0.009
		c0.28-0.178,0.585-0.325,0.907-0.438c0.026-0.01,0.054-0.021,0.081-0.031l0.121-0.039c0.418-0.128,0.862-0.197,1.323-0.197
		c2.484,0,4.507,1.98,4.507,4.413C18.608,20.078,16.586,22.06,14.102,22.06z"/>
	<path display="inline" fill="#2FA3DC" d="M16.507,17.427h-2.02v-2.021c0-0.224-0.182-0.404-0.404-0.404
		c-0.225,0-0.404,0.181-0.404,0.404v2.021h-2.021c-0.223,0-0.404,0.181-0.404,0.405c0,0.223,0.182,0.404,0.404,0.404h2.021v2.021
		c0,0.224,0.18,0.405,0.404,0.405c0.223,0,0.404-0.182,0.404-0.405v-2.021h2.02c0.225,0,0.406-0.182,0.406-0.404
		C16.913,17.607,16.731,17.427,16.507,17.427z"/>
</g>
</svg>
