<?xml version="1.0" encoding="utf-8"?>
<!-- Generator: Adobe Illustrator 16.0.0, SVG Export Plug-In . SVG Version: 6.00 Build 0)  -->
<!DOCTYPE svg PUBLIC "-//W3C//DTD SVG 1.1//EN" "http://www.w3.org/Graphics/SVG/1.1/DTD/svg11.dtd">
<svg version="1.1" id="Layer_1" xmlns="http://www.w3.org/2000/svg" xmlns:xlink="http://www.w3.org/1999/xlink" x="0px" y="0px"
	 width="35px" height="50px" viewBox="0 0 35 50" enable-background="new 0 0 35 50" xml:space="preserve">
<radialGradient id="SVGID_1_" cx="17.375" cy="24.8315" r="19.5467" gradientUnits="userSpaceOnUse">
	<stop  offset="0" style="stop-color:#5BBA47"/>
	<stop  offset="1" style="stop-color:#008E48"/>
</radialGradient>
<path display="none" fill="url(#SVGID_1_)" stroke="#FFFFFF" stroke-width="2" stroke-miterlimit="10" d="M33.843,17.887
	c0,10.886-15.65,29.444-16.809,29.144C15.17,46.548,1.262,31.172,0.912,17.887C0.714,10.409,8.283,2.629,17.377,2.629
	C26.47,2.629,33.843,10.407,33.843,17.887z"/>
<rect x="10.857" y="16.644" display="none" fill="#00A651" width="13.615" height="2.832"/>
<ellipse display="none" fill="#FFFFFF" cx="17.5" cy="19.645" rx="11.509" ry="11.009"/>
<rect x="9.135" y="18.287" fill="#00A651" width="16.412" height="3.507"/>
<rect x="15.876" y="11.933" fill="#00A651" width="3.394" height="15.161"/>
<polygon fill="#39B54A" points="10.955,25.753 26.121,25.641 18.031,49.23 "/>
<ellipse fill="#FFFFFF" stroke="#39B54A" stroke-width="2" stroke-miterlimit="10" cx="17.789" cy="16.21" rx="15.764" ry="14.638"/>
<rect x="8.562" y="12.994" display="none" fill="#39B54A" width="18.196" height="9.776"/>
<polyline display="none" fill="#39B54A" points="17.526,8.704 28.54,13.219 6.893,13.219 "/>
<rect x="7.655" y="14.155" fill="#ED1C24" width="20.268" height="5.427"/>
<rect x="15.204" y="7.647" fill="#ED1C24" width="5.255" height="18.351"/>
</svg>
