<?xml version="1.0" encoding="utf-8"?>
<!-- Generator: Adobe Illustrator 16.0.0, SVG Export Plug-In . SVG Version: 6.00 Build 0)  -->
<!DOCTYPE svg PUBLIC "-//W3C//DTD SVG 1.1//EN" "http://www.w3.org/Graphics/SVG/1.1/DTD/svg11.dtd">
<svg version="1.1" id="Layer_1" xmlns="http://www.w3.org/2000/svg" xmlns:xlink="http://www.w3.org/1999/xlink" x="0px" y="0px"
	 width="25px" height="25px" viewBox="0 0 25 25" enable-background="new 0 0 25 25" xml:space="preserve">
<g>
	<path fill="#03A6ED" d="M21.205,3.644C18.775,1.215,15.843,0,12.41,0c-3.434,0-6.356,1.215-8.77,3.644
		c-2.413,2.429-3.62,5.345-3.62,8.746l0.097,12.487h2.818V12.39c0-2.656,0.915-4.931,2.745-6.827
		c1.831-1.895,4.073-2.842,6.729-2.842s4.899,0.948,6.729,2.842c1.829,1.896,2.746,4.187,2.746,6.876v12.438h2.963V12.39
		C24.849,8.989,23.634,6.073,21.205,3.644L21.205,3.644z M21.205,3.644"/>
	<path fill="#03A6ED" d="M16.444,20.261l0.047-0.048c0.42-0.163,0.81-0.372,1.166-0.633c0.324-0.259,0.551-0.646,0.681-1.165
		c0.031-0.162,0.048-0.292,0.048-0.39V7.628c0-0.26-0.065-0.519-0.193-0.777c-0.163-0.26-0.341-0.485-0.535-0.681
		c-0.193-0.194-0.438-0.373-0.729-0.534c-0.227-0.098-0.484-0.146-0.777-0.146H8.718c-0.292,0-0.551,0.049-0.778,0.146
		c-0.292,0.162-0.542,0.332-0.753,0.51C6.977,6.324,6.79,6.543,6.629,6.802C6.499,7.061,6.435,7.321,6.435,7.58v10.543
		c0,0.194,0.032,0.371,0.097,0.535c0.129,0.226,0.243,0.405,0.34,0.534c0.13,0.193,0.275,0.356,0.437,0.485s0.308,0.243,0.438,0.341
		c0.098,0.031,0.227,0.08,0.389,0.146l0.219,0.073c0.048,0.016,0.057,0.023,0.024,0.023l-3.013,4.616h1.75l2.234-2.964h6.122
		l2.236,2.964h1.749l-2.965-4.52L16.444,20.261z M9.932,6.462c0-0.13,0.049-0.243,0.146-0.341c0.098-0.097,0.21-0.146,0.34-0.146
		h3.983c0.131,0,0.245,0.048,0.341,0.146c0.098,0.098,0.146,0.21,0.146,0.341v0.486c0,0.161-0.049,0.292-0.146,0.388
		c-0.096,0.097-0.21,0.146-0.341,0.146h-3.983c-0.13,0-0.243-0.049-0.34-0.146C9.981,7.24,9.932,7.11,9.932,6.949V6.462z
		 M7.94,9.329V8.891c0.097-0.193,0.178-0.323,0.243-0.389c0.195-0.227,0.308-0.34,0.34-0.34C8.75,8.033,8.896,7.968,8.961,7.968
		h6.899l0.388,0.146c0.065,0.032,0.178,0.129,0.34,0.291c0.032,0.033,0.114,0.146,0.244,0.34C16.863,8.81,16.88,8.94,16.88,9.134
		v2.38c0,0.163-0.017,0.292-0.048,0.39c-0.097,0.129-0.194,0.243-0.291,0.34c-0.033,0-0.146,0.049-0.342,0.145
		c-0.063,0.034-0.194,0.05-0.388,0.05H9.01l-0.049,0.024c-0.033,0.015-0.057,0.024-0.073,0.024c-0.017,0-0.041-0.009-0.073-0.024
		l-0.048-0.024c-0.228-0.034-0.437-0.164-0.631-0.39c-0.13-0.162-0.195-0.388-0.195-0.68V9.329z M9.835,18.487
		c-0.227,0.243-0.51,0.364-0.85,0.364c-0.34,0-0.617-0.121-0.827-0.364c-0.209-0.241-0.314-0.526-0.314-0.851
		c0-0.323,0.112-0.6,0.339-0.824c0.228-0.229,0.502-0.342,0.827-0.342c0.324,0,0.599,0.105,0.826,0.316
		c0.227,0.211,0.34,0.493,0.34,0.85C10.176,17.961,10.062,18.246,9.835,18.487L9.835,18.487z M14.937,18.487
		c-0.226-0.241-0.34-0.534-0.34-0.874c0-0.341,0.121-0.615,0.364-0.826c0.242-0.211,0.527-0.316,0.851-0.316
		c0.324,0,0.599,0.113,0.826,0.342c0.226,0.225,0.34,0.501,0.34,0.824c0,0.324-0.114,0.609-0.34,0.851
		c-0.228,0.243-0.511,0.364-0.852,0.364C15.448,18.852,15.163,18.73,14.937,18.487L14.937,18.487z M14.937,18.487"/>
</g>
</svg>
