<?xml version="1.0" encoding="utf-8"?>
<!-- Generator: Adobe Illustrator 16.0.0, SVG Export Plug-In . SVG Version: 6.00 Build 0)  -->
<!DOCTYPE svg PUBLIC "-//W3C//DTD SVG 1.1//EN" "http://www.w3.org/Graphics/SVG/1.1/DTD/svg11.dtd">
<svg version="1.1" id="Layer_1" xmlns="http://www.w3.org/2000/svg" xmlns:xlink="http://www.w3.org/1999/xlink" x="0px" y="0px"
	 width="25px" height="25px" viewBox="0 0 25 25" enable-background="new 0 0 25 25" xml:space="preserve">
<g display="none">
	<path display="inline" fill="#03A6ED" d="M21.205,3.644C18.775,1.215,15.843,0,12.41,0c-3.434,0-6.356,1.215-8.77,3.644
		c-2.413,2.429-3.62,5.345-3.62,8.746l0.097,12.487h2.818V12.39c0-2.656,0.915-4.931,2.745-6.827
		c1.831-1.895,4.073-2.842,6.729-2.842s4.899,0.948,6.729,2.842c1.829,1.896,2.746,4.187,2.746,6.876v12.438h2.963V12.39
		C24.849,8.989,23.634,6.073,21.205,3.644L21.205,3.644z M21.205,3.644"/>
	<path display="inline" fill="#03A6ED" d="M16.444,20.261l0.047-0.048c0.42-0.163,0.81-0.372,1.166-0.633
		c0.324-0.259,0.551-0.646,0.681-1.165c0.031-0.162,0.048-0.292,0.048-0.39V7.628c0-0.26-0.065-0.519-0.193-0.777
		c-0.163-0.26-0.341-0.485-0.535-0.681c-0.193-0.194-0.438-0.373-0.729-0.534c-0.227-0.098-0.484-0.146-0.777-0.146H8.718
		c-0.292,0-0.551,0.049-0.778,0.146c-0.292,0.162-0.542,0.332-0.753,0.51C6.977,6.324,6.79,6.543,6.629,6.802
		C6.499,7.061,6.435,7.321,6.435,7.58v10.543c0,0.194,0.032,0.371,0.097,0.535c0.129,0.226,0.243,0.405,0.34,0.534
		c0.13,0.193,0.275,0.356,0.437,0.485s0.308,0.243,0.438,0.341c0.098,0.031,0.227,0.08,0.389,0.146l0.219,0.073
		c0.048,0.016,0.057,0.023,0.024,0.023l-3.013,4.616h1.75l2.234-2.964h6.122l2.236,2.964h1.749l-2.965-4.52L16.444,20.261z
		 M9.932,6.462c0-0.13,0.049-0.243,0.146-0.341c0.098-0.097,0.21-0.146,0.34-0.146h3.983c0.131,0,0.245,0.048,0.341,0.146
		c0.098,0.098,0.146,0.21,0.146,0.341v0.486c0,0.161-0.049,0.292-0.146,0.388c-0.096,0.097-0.21,0.146-0.341,0.146h-3.983
		c-0.13,0-0.243-0.049-0.34-0.146C9.981,7.24,9.932,7.11,9.932,6.949V6.462z M7.94,9.329V8.891c0.097-0.193,0.178-0.323,0.243-0.389
		c0.195-0.227,0.308-0.34,0.34-0.34C8.75,8.033,8.896,7.968,8.961,7.968h6.899l0.388,0.146c0.065,0.032,0.178,0.129,0.34,0.291
		c0.032,0.033,0.114,0.146,0.244,0.34C16.863,8.81,16.88,8.94,16.88,9.134v2.38c0,0.163-0.017,0.292-0.048,0.39
		c-0.097,0.129-0.194,0.243-0.291,0.34c-0.033,0-0.146,0.049-0.342,0.145c-0.063,0.034-0.194,0.05-0.388,0.05H9.01l-0.049,0.024
		c-0.033,0.015-0.057,0.024-0.073,0.024c-0.017,0-0.041-0.009-0.073-0.024l-0.048-0.024c-0.228-0.034-0.437-0.164-0.631-0.39
		c-0.13-0.162-0.195-0.388-0.195-0.68V9.329z M9.835,18.487c-0.227,0.243-0.51,0.364-0.85,0.364c-0.34,0-0.617-0.121-0.827-0.364
		c-0.209-0.241-0.314-0.526-0.314-0.851c0-0.323,0.112-0.6,0.339-0.824c0.228-0.229,0.502-0.342,0.827-0.342
		c0.324,0,0.599,0.105,0.826,0.316c0.227,0.211,0.34,0.493,0.34,0.85C10.176,17.961,10.062,18.246,9.835,18.487L9.835,18.487z
		 M14.937,18.487c-0.226-0.241-0.34-0.534-0.34-0.874c0-0.341,0.121-0.615,0.364-0.826c0.242-0.211,0.527-0.316,0.851-0.316
		c0.324,0,0.599,0.113,0.826,0.342c0.226,0.225,0.34,0.501,0.34,0.824c0,0.324-0.114,0.609-0.34,0.851
		c-0.228,0.243-0.511,0.364-0.852,0.364C15.448,18.852,15.163,18.73,14.937,18.487L14.937,18.487z M14.937,18.487"/>
</g>
<g display="none">
	<path display="inline" fill="#03A6ED" d="M24.407,19.688L18.734,5.485c-0.074-0.172-0.191-0.322-0.354-0.448
		c-0.162-0.127-0.336-0.19-0.517-0.19H13.25c0.119,0,0.223,0.042,0.313,0.129c0.09,0.086,0.14,0.188,0.149,0.306l0.205,2.613
		c0.009,0.126-0.028,0.23-0.108,0.313c-0.082,0.081-0.183,0.122-0.301,0.122h-2.257c-0.119,0-0.218-0.041-0.3-0.122
		c-0.082-0.083-0.118-0.187-0.108-0.313l0.204-2.613c0.009-0.118,0.059-0.22,0.15-0.306c0.09-0.086,0.195-0.129,0.313-0.129H6.898
		c-0.182,0-0.354,0.063-0.517,0.19C6.217,5.163,6.1,5.313,6.027,5.485L0.354,19.688C0.118,20.251,0,20.776,0,21.266
		c0,0.664,0.208,0.994,0.626,0.994h9.577c-0.118,0-0.217-0.044-0.299-0.129c-0.082-0.087-0.118-0.189-0.109-0.306l0.271-3.483
		c0.01-0.118,0.06-0.22,0.15-0.306c0.09-0.086,0.195-0.13,0.313-0.13h3.702c0.117,0,0.221,0.044,0.313,0.13
		c0.09,0.086,0.141,0.188,0.149,0.306l0.272,3.483c0.009,0.116-0.027,0.219-0.108,0.306c-0.083,0.085-0.184,0.129-0.3,0.129h9.577
		c0.417,0,0.626-0.33,0.626-0.994C24.761,20.776,24.643,20.252,24.407,19.688z M14.435,14.913c0.008,0.109-0.027,0.198-0.108,0.271
		s-0.178,0.109-0.285,0.109H10.72c-0.108,0-0.204-0.036-0.286-0.109c-0.081-0.073-0.117-0.162-0.108-0.271v-0.054l0.327-4.354
		c0.008-0.119,0.059-0.221,0.149-0.306c0.091-0.087,0.196-0.13,0.313-0.13h2.531c0.117,0,0.221,0.043,0.313,0.13
		c0.089,0.085,0.14,0.188,0.149,0.306l0.326,4.354V14.913L14.435,14.913z"/>
</g>
<g display="none">
	<path display="inline" fill="#03A6ED" d="M12.172,0C5.46,0,0,5.461,0,12.172c0,6.712,5.46,12.172,12.172,12.172
		c6.712,0,12.172-5.46,12.172-12.172C24.344,5.461,18.884,0,12.172,0z M12.172,23.532c-6.264,0-11.36-5.096-11.36-11.36
		c0-6.264,5.097-11.36,11.36-11.36c6.265,0,11.359,5.096,11.359,11.36C23.531,18.437,18.437,23.532,12.172,23.532z"/>
	<path display="inline" fill="#03A6ED" d="M12.172,2.435c-0.224,0-0.406,0.182-0.406,0.405v9.332H5.68
		c-0.224,0-0.406,0.181-0.406,0.406c0,0.224,0.182,0.406,0.406,0.406h6.492c0.225,0,0.406-0.183,0.406-0.406V2.84
		C12.578,2.616,12.396,2.435,12.172,2.435z"/>
</g>
<g display="none">
	<g display="inline">
		<path fill="#03A6ED" d="M11.988,1C5.365,1-0.023,6.389-0.023,13.012s5.389,12.012,12.012,12.012S24,19.635,24,13.012
			S18.611,1,11.988,1z M11.988,22.468c-5.214,0-9.456-4.242-9.456-9.456s4.242-9.456,9.456-9.456s9.456,4.242,9.456,9.456
			S17.202,22.468,11.988,22.468z"/>
		<path fill="#03A6ED" d="M18.248,12.641h-5.397V6.15c0-0.546-0.443-0.989-0.989-0.989c-0.546,0-0.989,0.443-0.989,0.989v7.479
			c0,0.546,0.443,0.989,0.989,0.989h6.387c0.547,0,0.989-0.443,0.989-0.989S18.795,12.641,18.248,12.641z"/>
	</g>
</g>
<g display="none">
	<g display="inline">
		<path fill="#03A6ED" d="M8.911,13.682c0-0.31-0.252-0.563-0.563-0.563H6.383c-0.311,0-0.563,0.254-0.563,0.563v1.964
			c0,0.311,0.252,0.563,0.563,0.563h1.964c0.311,0,0.563-0.253,0.563-0.563V13.682L8.911,13.682z"/>
		<path fill="#03A6ED" d="M13.82,13.682c0-0.31-0.252-0.563-0.563-0.563h-1.964c-0.311,0-0.563,0.254-0.563,0.563v1.964
			c0,0.311,0.252,0.563,0.563,0.563h1.964c0.312,0,0.563-0.253,0.563-0.563V13.682z"/>
		<path fill="#03A6ED" d="M18.729,13.682c0-0.31-0.252-0.563-0.563-0.563h-1.964c-0.311,0-0.563,0.254-0.563,0.563v1.964
			c0,0.311,0.253,0.563,0.563,0.563h1.964c0.311,0,0.563-0.253,0.563-0.563V13.682z"/>
		<path fill="#03A6ED" d="M8.911,18.592c0-0.312-0.252-0.563-0.563-0.563H6.383c-0.311,0-0.563,0.252-0.563,0.563v1.964
			c0,0.311,0.252,0.562,0.563,0.562h1.964c0.311,0,0.563-0.251,0.563-0.562V18.592L8.911,18.592z"/>
		<path fill="#03A6ED" d="M13.82,18.592c0-0.312-0.252-0.563-0.563-0.563h-1.964c-0.311,0-0.563,0.252-0.563,0.563v1.964
			c0,0.311,0.252,0.562,0.563,0.562h1.964c0.312,0,0.563-0.251,0.563-0.562V18.592z"/>
		<path fill="#03A6ED" d="M18.729,18.592c0-0.312-0.252-0.563-0.563-0.563h-1.964c-0.311,0-0.563,0.252-0.563,0.563v1.964
			c0,0.311,0.253,0.562,0.563,0.562h1.964c0.311,0,0.563-0.251,0.563-0.562V18.592L18.729,18.592z"/>
		<path fill="#03A6ED" d="M22.241,2.761v3c0,1.356-1.101,2.448-2.457,2.448h-1.549c-1.354,0-2.469-1.092-2.469-2.448V2.75H8.784
			v3.011c0,1.356-1.115,2.448-2.471,2.448H4.764c-1.356,0-2.456-1.092-2.456-2.448v-3C1.124,2.797,0.15,3.777,0.15,4.982v17.581
			c0,1.229,0.995,2.236,2.223,2.236h19.804c1.226,0,2.223-1.009,2.223-2.236V4.982C24.399,3.777,23.426,2.797,22.241,2.761z
			 M21.521,21.47c0,0.529-0.431,0.959-0.961,0.959H3.946c-0.531,0-0.961-0.43-0.961-0.959v-9.083c0-0.53,0.43-0.961,0.961-0.961
			h16.614c0.53,0,0.961,0.431,0.961,0.961V21.47L21.521,21.47z"/>
		<path fill="#03A6ED" d="M4.758,6.601h1.532c0.466,0,0.842-0.376,0.842-0.841V0.842C7.132,0.376,6.756,0,6.291,0H4.758
			C4.293,0,3.916,0.376,3.916,0.842V5.76C3.916,6.225,4.293,6.601,4.758,6.601z"/>
		<path fill="#03A6ED" d="M18.218,6.601h1.531c0.464,0,0.842-0.376,0.842-0.841V0.842C20.591,0.376,20.213,0,19.749,0h-1.531
			c-0.466,0-0.844,0.376-0.844,0.842V5.76C17.374,6.225,17.752,6.601,18.218,6.601z"/>
	</g>
</g>
<g display="none">
	<path display="inline" fill="#03A6ED" d="M15.138,8.07c1.151,0.703,1.956,1.895,2.104,3.277c0.469,0.215,0.987,0.338,1.542,0.338
		c2.014,0,3.646-1.596,3.646-3.563s-1.633-3.562-3.646-3.562C16.788,4.563,15.17,6.128,15.138,8.07z M12.748,15.362
		c2.016,0,3.65-1.595,3.65-3.562s-1.636-3.563-3.65-3.563c-2.013,0-3.647,1.596-3.647,3.563S10.734,15.362,12.748,15.362z
		 M14.295,15.605h-3.094c-2.575,0-4.67,2.047-4.67,4.562v3.695l0.009,0.059L6.801,24c2.457,0.75,4.592,1,6.35,1
		c3.434,0,5.422-0.955,5.545-1.017l0.242-0.12h0.026v-3.696C18.967,17.652,16.872,15.605,14.295,15.605z M20.33,11.929h-3.071
		c-0.032,1.199-0.557,2.28-1.387,3.058c2.289,0.664,3.964,2.736,3.964,5.186v1.14c3.032-0.109,4.78-0.949,4.896-1.004l0.242-0.122
		H25v-3.697C25,13.975,22.905,11.929,20.33,11.929z M6.348,11.686c0.714,0,1.377-0.203,1.94-0.549
		c0.179-1.139,0.804-2.135,1.697-2.813c0.004-0.066,0.01-0.133,0.01-0.199c0-1.969-1.632-3.563-3.646-3.563
		c-2.015,0-3.647,1.594-3.647,3.563C2.701,10.091,4.333,11.686,6.348,11.686z M9.624,14.986c-0.826-0.773-1.349-1.848-1.386-3.041
		c-0.114-0.008-0.227-0.017-0.343-0.017H4.8c-2.575,0-4.67,2.046-4.67,4.56v3.697l0.01,0.058L0.4,20.322
		c1.972,0.602,3.731,0.879,5.259,0.966v-1.116C5.66,17.723,7.334,15.65,9.624,14.986z"/>
</g>
<path display="none" fill="#03A6ED" d="M4.034,25.107h16.736c0.888,0,1.608-0.72,1.608-1.608V12.641
	c0-0.889-0.721-1.609-1.608-1.609h-2.404v3.201c0.946,0.282,1.64,1.16,1.64,2.198v1.748h-1.312v-1.748
	c0-0.542-0.441-0.983-0.984-0.983c-0.541,0-0.983,0.441-0.983,0.983v1.748h-1.311v-1.748c0-1.038,0.692-1.916,1.64-2.198v-3.122
	c-1.196,1.186-2.841,1.918-4.654,1.918c-1.746,0-3.335-0.681-4.519-1.791v3.495c0.854,0.277,1.474,1.079,1.474,2.025
	c0,1.175-0.955,2.129-2.129,2.129c-1.175,0-2.129-0.954-2.129-2.129c0-0.946,0.62-1.748,1.474-2.025v-3.702H4.034
	c-0.888,0-1.608,0.721-1.608,1.609v10.858C2.426,24.388,3.146,25.107,4.034,25.107z"/>
<path display="none" fill="#03A6ED" d="M8.39,10.639c0.146,0.139,0.298,0.27,0.458,0.393c0.984,0.76,2.217,1.213,3.555,1.213
	c1.34,0,2.571-0.453,3.557-1.213c0.158-0.123,0.312-0.254,0.456-0.393c0.132-0.125,0.258-0.257,0.377-0.394
	c0.895-1.023,1.438-2.363,1.438-3.829c0-3.218-2.608-5.826-5.827-5.826c-3.218,0-5.826,2.608-5.826,5.826
	c0,1.466,0.542,2.805,1.436,3.829C8.132,10.382,8.258,10.514,8.39,10.639z"/>
<path display="none" fill="#03A6ED" d="M3.903,16.759c0,0.451,0.367,0.819,0.819,0.819c0.451,0,0.818-0.368,0.818-0.819
	c0-0.252-0.117-0.475-0.295-0.624c-0.143-0.12-0.323-0.195-0.523-0.195s-0.381,0.075-0.523,0.195
	C4.02,16.284,3.903,16.507,3.903,16.759z"/>
<g display="none">
	<g display="inline">
		<circle fill="#03A6ED" cx="12.24" cy="5.176" r="4.562"/>
		<path fill="#03A6ED" d="M16.855,11.265h-0.057l-0.195,2.53c-0.028,0.354-0.286,0.647-0.634,0.718l-1.452,0.297l0.357,1.052
			c0.068,0.204,0.053,0.425-0.045,0.616c0,0-1.41,2.762-1.88,3.681c-0.001,0.003-0.232,0.366-0.691,0.366
			c-0.567,0-0.72-0.364-0.722-0.366c-0.471-0.919-1.88-3.681-1.88-3.681c-0.097-0.191-0.114-0.412-0.046-0.615l0.358-1.053
			l-1.453-0.296c-0.348-0.069-0.606-0.362-0.633-0.716l-0.196-2.533H7.63c-3.158,0-5.717,2.561-5.717,5.718v6.416
			C1.913,24.283,2.63,25,3.515,25h17.442c0.885,0,1.602-0.717,1.602-1.602v-6.434C22.555,13.817,20.004,11.265,16.855,11.265z
			 M18.897,22.227h-1.205v1.184c0,0.438-0.352,0.793-0.788,0.793c-0.438,0-0.789-0.354-0.789-0.793v-1.184h-1.185
			c-0.438,0-0.793-0.35-0.793-0.788s0.355-0.789,0.793-0.789h1.185v-1.205c0-0.439,0.351-0.795,0.789-0.795
			c0.437,0,0.788,0.355,0.788,0.795v1.205h1.205c0.437,0,0.793,0.351,0.793,0.789S19.335,22.227,18.897,22.227z"/>
		<path fill="#03A6ED" d="M13.317,13.432l1.749-0.355l0.141-1.813H9.276l0.14,1.813l1.749,0.355
			c0.225,0.045,0.417,0.185,0.531,0.382c0.114,0.198,0.136,0.435,0.063,0.65l-0.538,1.59l1.02,1.999l1.023-1.999l-0.54-1.59
			c-0.073-0.215-0.05-0.452,0.065-0.65C12.9,13.616,13.096,13.477,13.317,13.432z"/>
	</g>
</g>
<g>
	<path fill="#03A6ED" d="M19.534,15.112c-0.108,0-0.22,0.016-0.331,0.046l-0.419,0.111l-0.618-1.463
		c-0.347-0.82-1.37-1.488-2.281-1.488h-6.78c-0.913,0-1.936,0.668-2.282,1.488l-0.616,1.461l-0.41-0.109
		c-0.111-0.03-0.223-0.046-0.331-0.046c-0.543,0-0.938,0.381-0.938,0.902c0,0.517,0.387,0.951,0.912,1.082
		c-0.288,0.772-0.512,1.932-0.512,2.693v3.114c0,0.665,0.557,1.205,1.24,1.205h0.454c0.685,0,1.24-0.54,1.24-1.205v-0.583h9.266
		v0.583c0,0.665,0.556,1.205,1.241,1.205h0.454c0.684,0,1.239-0.54,1.239-1.205V19.79c0-0.761-0.224-1.918-0.511-2.691
		c0.53-0.128,0.923-0.564,0.923-1.084C20.474,15.493,20.079,15.112,19.534,15.112z M6.978,16.327l1.007-2.388
		c0.207-0.49,0.823-0.891,1.369-0.891h6.283c0.545,0,1.161,0.4,1.368,0.891l1.008,2.388c0.207,0.491-0.068,0.893-0.615,0.893H7.592
		C7.046,17.22,6.77,16.818,6.978,16.327z M9.648,20.21c0,0.265-0.223,0.482-0.496,0.482H7.096c-0.273,0-0.496-0.218-0.496-0.482
		v-0.798c0-0.266,0.223-0.481,0.496-0.481h2.056c0.273,0,0.496,0.216,0.496,0.481V20.21z M18.367,20.21
		c0,0.265-0.224,0.482-0.496,0.482h-2.058c-0.271,0-0.495-0.218-0.495-0.482v-0.798c0-0.266,0.224-0.481,0.495-0.481h2.058
		c0.272,0,0.496,0.216,0.496,0.481V20.21z"/>
	<path fill="#03A6ED" d="M24.451,7.855L13.053,1.358c-0.151-0.086-0.346-0.133-0.552-0.133c-0.207,0-0.402,0.047-0.554,0.133
		L0.551,7.855C0.236,8.034,0,8.436,0,8.79v15.488C0,24.676,0.334,25,0.744,25h1.281c0.41,0,0.743-0.324,0.743-0.723V11.171
		c0-0.133,0.111-0.241,0.248-0.241h18.968c0.138,0,0.248,0.108,0.248,0.241v13.106c0,0.398,0.335,0.723,0.744,0.723h1.281
		C24.667,25,25,24.676,25,24.277V8.79C25,8.436,24.764,8.034,24.451,7.855z"/>
</g>
</svg>
