<?xml version="1.0" encoding="UTF-8"?>
<!DOCTYPE svg PUBLIC "-//W3C//DTD SVG 1.1//EN" "http://www.w3.org/Graphics/SVG/1.1/DTD/svg11.dtd">
<!-- Creator: CorelDRAW -->
<svg xmlns="http://www.w3.org/2000/svg" xml:space="preserve" width="30px" height="30px" style="shape-rendering:geometricPrecision; text-rendering:geometricPrecision; image-rendering:optimizeQuality; fill-rule:evenodd; clip-rule:evenodd"
viewBox="0 0 30 30"
 xmlns:xlink="http://www.w3.org/1999/xlink">
 <defs>
  <style type="text/css">
   <![CDATA[
    .fil0 {fill:none}
    .fil1 {fill:#2EA2DC}
   ]]>
  </style>
 </defs>
 <g id="Layer_x0020_1">
  <metadata id="CorelCorpID_0Corel-Layer"/>
  <rect class="fil0" x="0.000441551" width="30" height="30"/>
  <path class="fil1" d="M5.30079 16.2921c0,1.26378 0.785433,4.3252 0.877559,5.45906 0.0153543,0.187795 -0.925984,4.17047 -0.925984,4.72795 0.464173,1.27677 2.27835,1.37244 2.53937,0.0543307 0.103937,-0.518504 0.229134,-1.05 0.33189,-1.5685 0.158268,-0.794882 0.532677,-2.48504 0.58937,-3.21378 0.0401575,-0.526772 -0.550394,-3.28346 -0.539764,-3.36614l0.15 -0.337795c0.0637795,0.133465 0.0968504,0.279921 0.152362,0.431102l1.17165 3.26457c0.112205,0.379134 -0.100394,2.33504 -0.103937,2.93504 -0.00472441,0.634252 -0.318898,2.07165 0.178346,2.45079 0.616535,0.571654 1.8378,0.499606 2.19094,-0.324803 0.131102,-0.304724 0.309449,-4.20118 0.309449,-4.80827 0,-0.88937 -0.564567,-2.09291 -0.84685,-2.95512l-1.00512 -2.84528c-0.0862205,-0.507874 0.512598,-2.79803 0.700394,-3.34606 0.387402,-1.13031 0.740551,-1.75984 1.29803,-2.74724 0.0437008,0.0507874 -0.00590551,-0.0141732 0.0661417,0.080315 0.346063,0.452362 1.11614,1.95591 1.36535,2.1437 0.48189,0.362598 3.40748,2.09882 3.97913,2.21339 0.359055,0.0708661 0.976772,-0.288189 1.07244,-0.975591 0.103937,-0.757087 -0.47126,-1.02756 -0.904724,-1.28858l-2.38228 -1.42087c-0.419291,-0.248031 -0.207874,-0.0673228 -0.455906,-0.468898l-1.80354 -2.97165c-0.142913,-0.237402 -0.94252,-1.63819 -1.13622,-1.74213l-0.726378 -0.24685c-0.635433,-0.106299 -2.46142,1.69134 -2.95276,2.31142 -1.56378,1.97717 -2.43543,4.19055 -2.93268,6.6685 -0.113386,0.562205 -0.256299,1.25551 -0.256299,1.88858l0 -0.0011811zm7.84724 -11.6492c0,0.849213 0.125197,1.32283 0.71811,1.91457 0.162992,0.162992 0.431102,0.361417 0.664961,0.454724 0.720472,0.224409 1.16457,0.282283 1.87559,0.0141732 0.429921,-0.161811 1.00866,-0.688583 1.16102,-1.08071 0.462992,-1.19764 0.34252,-2.15551 -0.682677,-2.99409 -0.408661,-0.333071 -1.07717,-0.452362 -1.59331,-0.452362 -0.76063,0 -1.5685,0.583465 -1.91929,1.29921 -0.101575,0.206693 -0.225591,0.561024 -0.225591,0.845669l0.0011811 -0.0011811zm9.26102 21.6425c-0.303543,0 -0.649606,-0.193701 -0.818504,-0.350787 -0.279921,-0.232677 -0.364961,-0.51378 -0.351969,-0.818504 0,-1.59449 2.37638,-1.48819 2.33268,-0.00472441 -0.00944882,0.317717 -0.164173,0.64252 -0.344882,0.822047 -0.158268,0.158268 -0.524409,0.351969 -0.817323,0.351969l0 0zm-0.194882 1.16929c-0.538583,-0.0271654 -1.03583,-0.227953 -1.47638,-0.668504 -0.367323,-0.259843 -0.779528,-1.32283 -0.668504,-1.86614 0.0708661,-0.479528 0.283465,-0.944882 0.598819,-1.39961 0.101575,-0.166535 0.605906,-0.498425 0.871654,-0.590551 0.151181,-0.0531496 0.283465,-0.0377953 0.283465,-0.20315l0 -1.99843 -3.11929 0 -0.183071 0.351969 -0.601181 2.95748c-0.0496063,0.245669 -0.674409,3.24567 -0.677953,3.41693l-1.21772 0c0.00472441,-0.24685 0.674409,-3.39685 0.742913,-3.74173 0.211417,-1.05945 0.512598,-2.67402 0.748819,-3.68622 0.147638,-0.633071 0.251575,-1.21654 0.380315,-1.86142 0.517323,-2.5878 0.17126,-1.54843 1.13386,-3.35079 0.256299,-0.483071 0.556299,-1.20236 0.990945,-1.20236 0.196063,0 0.874016,0.412205 1.07126,0.53622 0.505512,0.315354 1.1622,1.05827 1.4315,1.59094 0.178346,0.35315 0.33189,0.688583 0.408661,1.10197 0.134646,0.72874 0.0614173,4.89685 0.0614173,5.98228 0.452362,0.201969 0.882283,0.341339 1.19882,0.751181 0.641339,0.831496 0.692126,1.6122 0.329528,2.58071 -0.154724,0.415748 -0.651969,0.866929 -1.07244,1.07244 -0.416929,0.204331 -0.790157,0.226772 -1.23543,0.226772l0 0zm-1.95 -12.4299c0.950787,0.637795 1.64173,1.6937 1.55906,2.87598l0 1.65709 -2.97283 0c0.00354331,-0.19252 0.576378,-2.96457 0.618898,-3.08504l0.794882 -1.44803z"/>
 </g>
</svg>
