<?xml version="1.0" encoding="UTF-8"?>
<!DOCTYPE svg PUBLIC "-//W3C//DTD SVG 1.1//EN" "http://www.w3.org/Graphics/SVG/1.1/DTD/svg11.dtd">
<!-- Creator: CorelDRAW -->
<svg xmlns="http://www.w3.org/2000/svg" xml:space="preserve" width="30px" height="30px" style="shape-rendering:geometricPrecision; text-rendering:geometricPrecision; image-rendering:optimizeQuality; fill-rule:evenodd; clip-rule:evenodd"
viewBox="0 0 30 29.9976"
 xmlns:xlink="http://www.w3.org/1999/xlink">
 <defs>
  <style type="text/css">
   <![CDATA[
    .fil0 {fill:none}
    .fil1 {fill:#2FA3DC}
   ]]>
  </style>
 </defs>
 <g id="Layer_x0020_1">
  <metadata id="CorelCorpID_0Corel-Layer"/>
  <rect class="fil0" x="0.000561758" y="-0.000561716" width="29.9989" height="29.9988"/>
  <g id="_151253384">
   <path id="_151253192" class="fil1" d="M23.7815 11.6846c0.20315,0.0637795 0.315354,0.27874 0.252756,0.479528 -0.0637795,0.20315 -0.277559,0.315354 -0.480709,0.252756 -1.39843,-0.434646 -2.67874,-0.575197 -3.88583,-0.411024 -1.1374,0.154724 -2.21693,0.57874 -3.27874,1.27913 0.0283465,0.333071 0.0354331,0.675591 0.023622,1.02874 -0.0153543,0.433465 -0.0614173,0.875197 -0.13937,1.32402 -0.0200787,0.108661 0.0318898,0.172441 0.124016,0.217323 0.24685,0.119291 0.488976,0.248031 0.727559,0.388583 0.24685,0.144094 0.577559,0.376772 0.819685,0.544488 0.414567,0.285827 -0.00472441,0.891732 -0.41811,0.607087 -0.0744094,-0.0519685 -0.251575,-0.155906 -0.325984,-0.20315 0.153543,0.592913 0.132283,1.21299 0.0330709,1.81299 -0.0649606,0.393307 -0.166535,0.797244 -0.294094,1.20118 -0.034252,0.447638 0.0614173,0.843307 0.157087,1.24016 0.13937,0.575197 0.279921,1.15276 0.116929,1.92756 -0.0425197,0.206693 -0.245669,0.340157 -0.452362,0.296457 -0.207874,-0.0425197 -0.340157,-0.245669 -0.297638,-0.452362 0.121654,-0.57874 0.0188976,-1.05472 -0.0944882,-1.52362 -0.328346,0.751181 -0.695669,1.46457 -1.01457,2.08701l-0.101575 0.197244c-0.0956693,0.187795 -0.325984,0.262205 -0.51378,0.166535 -0.187795,-0.0968504 -0.263386,-0.327165 -0.166535,-0.514961l0.101575 -0.197244c0.472441,-0.92126 1.05945,-2.06457 1.44921,-3.19016 -0.0437008,0.0354331 -0.0874016,0.069685 -0.132283,0.103937 -0.793701,0.608268 -1.83071,1.1315 -2.62205,1.38307 -0.200787,0.0649606 -0.415748,-0.0472441 -0.479528,-0.248031 -0.0637795,-0.201969 0.0472441,-0.416929 0.249213,-0.479528 0.715748,-0.229134 1.65945,-0.706299 2.38701,-1.26378 0.366142,-0.281102 0.669685,-0.574016 0.845669,-0.850394 0.250394,-0.394488 0.206693,-0.929528 0.11811,-1.36772 -0.0779528,-0.388583 -0.240945,-0.735827 -0.51378,-1.02402 -0.346063,-0.200787 -0.527953,-0.594094 -0.458268,-0.989764 0.0732283,-0.425197 0.116929,-0.830315 0.129921,-1.22126 0.0141732,-0.390945 0,-0.772441 -0.0425197,-1.14803l0 0c-0.0141732,-0.134646 0.0437008,-0.272835 0.162992,-0.355512 1.22244,-0.845669 2.47205,-1.35472 3.79843,-1.53543 1.32165,-0.178346 2.71063,-0.0307087 4.21535,0.438189l0 0zm-14.0563 -4.77283c-0.550394,-0.155906 -1.12441,-0.274016 -1.71614,-0.35315 -0.210236,-0.0271654 -0.357874,-0.218504 -0.330709,-0.427559 0.0271654,-0.210236 0.219685,-0.357874 0.42874,-0.330709 0.774803,0.101575 1.52126,0.269291 2.22638,0.496063 -0.218504,0.190157 -0.420472,0.395669 -0.608268,0.615354l0 0zm14.2429 2.90433c0.201969,0.0637795 0.315354,0.27874 0.251575,0.479528 -0.0625984,0.20315 -0.277559,0.315354 -0.479528,0.252756 -1.40315,-0.437008 -2.74606,-0.641339 -4.08189,-0.535039 -1.32992,0.106299 -2.65866,0.522047 -4.04055,1.32638 -0.183071,0.106299 -0.41811,0.0437008 -0.523228,-0.13937 -0.00826772,-0.0129921 -0.0141732,-0.0248031 -0.0200787,-0.0377953l0 0c-0.269291,-0.612992 -0.630709,-1.17283 -1.0689,-1.6748 0.344882,-0.18189 0.722835,-0.21378 1.02756,0.0625984 0.209055,0.292913 0.398031,0.6 0.562205,0.923622 1.35945,-0.732283 2.67874,-1.11969 4.00394,-1.2248 1.4374,-0.114567 2.87362,0.102756 4.3689,0.566929l0 0zm-15.3319 -1.10315c-0.530315,-0.154724 -1.09724,-0.285827 -1.6937,-0.401575 -0.207874,-0.0401575 -0.343701,-0.240945 -0.304724,-0.448819 0.0401575,-0.207874 0.240945,-0.343701 0.448819,-0.303543 0.662598,0.12874 1.29331,0.276378 1.88386,0.454724 -0.122835,0.225591 -0.235039,0.459449 -0.334252,0.699213l0 0zm3.10039 7.11024c-0.20315,0.057874 -0.415748,-0.0590551 -0.473622,-0.261024 -0.0590551,-0.20315 0.057874,-0.415748 0.261024,-0.474803 0.190157,-0.0543307 0.399213,-0.092126 0.618898,-0.114567 0.227953,-0.023622 0.472441,-0.0330709 0.719291,-0.0283465 0.0519685,0 0.100394,-0.0200787 0.135827,-0.0519685 0.0354331,-0.034252 0.057874,-0.0791339 0.0614173,-0.131102 0.0590551,-1.11378 -0.0602362,-2.02913 -0.329528,-2.78504 0.0212598,-0.427559 0.100394,-0.851575 0.255118,-1.24606 0.622441,1.01575 0.930709,2.33268 0.838583,4.07008 -0.0129921,0.258661 -0.127559,0.487795 -0.303543,0.651969 -0.174803,0.162992 -0.411024,0.261024 -0.669685,0.256299 -0.21378,-0.00354331 -0.427559,0.00354331 -0.629528,0.0248031 -0.178346,0.0188976 -0.34252,0.0484252 -0.484252,0.0897638l0 0z"/>
   <path id="_151253264" class="fil1" d="M9.21732 13.9689c-0.807874,-3.00118 0.285827,-6.99803 3.51024,-7.89567 0.454724,-0.772441 0.576378,-1.91929 0.416929,-3.35787l2.25118 0c0.211417,0.957874 0.211417,2.2063 -0.279921,3.14173 0.788976,-0.818504 1.44094,-1.73386 1.90866,-2.77795l2.50748 0.526772c-0.448819,1.26378 -1.19173,2.39528 -2.12598,3.46181 0.369685,0.357874 0.77126,0.871654 1.0748,1.40433l-2.51929 0.959055c-1.38543,-2.58543 -4.9748,-0.0992126 -4.04764,4.14094 0.304724,1.39252 -2.44488,1.32992 -2.69646,0.39685l0 0z"/>
   <path id="_151253288" class="fil1" d="M7.20118 15.0319c0.188976,-0.253937 0.548031,-0.308268 0.80315,-0.11811 0.255118,0.187795 0.308268,0.54685 0.119291,0.801969 -0.603543,0.811417 -0.742913,1.77047 -0.55748,2.70472 0.217323,1.0878 0.86811,2.14134 1.74567,2.90669 1.32165,1.15276 4.44331,4.87677 5.82638,4.80472 0.200787,-0.0106299 0.41811,-0.0685039 0.644882,-0.167717 2.14961,-0.936614 3.91654,-4.16457 3.79606,-6.45945 -0.0271654,-0.510236 -0.133465,-1.0063 -0.335433,-1.46929 -0.0779528,-0.18189 -0.0141732,-0.0354331 -0.034252,-0.080315 -0.266929,-0.602362 -0.307087,-0.692126 0.229134,-1.3063 0.108661,-0.124016 0.211417,-0.259843 0.304724,-0.403937 0.347244,-0.539764 0.540945,-1.17874 0.458268,-1.8437 -0.057874,-0.458268 -0.248031,-0.936614 -0.611811,-1.4126 0.0685039,-0.0106299 0.137008,-0.0212598 0.206693,-0.0318898 0.368504,-0.0496063 0.737008,-0.0661417 1.10433,-0.0531496 0.245669,0.453543 0.387402,0.909449 0.442913,1.35945 0.119291,0.949606 -0.148819,1.85079 -0.633071,2.60197 -0.120472,0.187795 -0.25748,0.368504 -0.40748,0.539764 -0.0555118,0.0625984 -0.0543307,0.0661417 -0.0448819,0.0862205 0.0425197,0.0968504 -0.0141732,-0.0366142 0.0389764,0.0850394 0.258661,0.595276 0.394488,1.22717 0.42874,1.86969 0.145276,2.77441 -1.88858,6.44173 -4.48346,7.57205 -0.351969,0.152362 -0.703937,0.243307 -1.04528,0.262205 -2.1189,0.111024 -4.91693,-3.58465 -6.64134,-5.08937 -1.06181,-0.925984 -1.85197,-2.2122 -2.1189,-3.55039 -0.126378,-0.638976 -0.135827,-1.29094 -0.0011811,-1.92402 -0.133465,-0.185433 -0.245669,-0.379134 -0.338976,-0.575197 -0.442913,-0.944882 -0.414567,-1.96181 -0.0826772,-2.90079 0.318898,-0.902362 0.923622,-1.7374 1.65591,-2.35394 0.144094,-0.121654 0.295276,-0.23622 0.45,-0.341339 -0.0874016,0.531496 -0.125197,1.07126 -0.115748,1.60866 -0.39685,0.427559 -0.716929,0.934252 -0.905906,1.46929 -0.197244,0.556299 -0.249213,1.14094 -0.0909449,1.69016 0.0602362,-0.0944882 0.125197,-0.188976 0.193701,-0.281102l0 0z"/>
  </g>
 </g>
</svg>
