<?xml version="1.0" encoding="UTF-8"?>
<!DOCTYPE svg PUBLIC "-//W3C//DTD SVG 1.1//EN" "http://www.w3.org/Graphics/SVG/1.1/DTD/svg11.dtd">
<!-- Creator: CorelDRAW -->
<svg xmlns="http://www.w3.org/2000/svg" xml:space="preserve" width="30px" height="30px" style="shape-rendering:geometricPrecision; text-rendering:geometricPrecision; image-rendering:optimizeQuality; fill-rule:evenodd; clip-rule:evenodd"
viewBox="0 0 30 30"
 xmlns:xlink="http://www.w3.org/1999/xlink">
 <defs>
  <style type="text/css">
   <![CDATA[
    .fil0 {fill:none}
    .fil1 {fill:#2AA1DA;fill-rule:nonzero}
   ]]>
  </style>
 </defs>
 <g id="Layer_x0020_1">
  <metadata id="CorelCorpID_0Corel-Layer"/>
  <rect class="fil0" x="0.000441551" width="30" height="30"/>
  <path class="fil1" d="M9.50906 8.36339c-6.92953,2.57008 -6.80079,11.537 -6.73346,16.1846 0.0023622,0.216142 0.00708661,0.425197 0.00944882,0.608268 2.3185,0.311811 4.02874,0.372047 5.27598,0.100394 1.21299,-0.262205 1.97717,-0.861024 2.4685,-1.8815 0.775984,-1.60984 0.845669,-4.47756 0.819685,-6.3874l1.24488 -0.823228c0.0472441,1.90157 0.092126,5.63976 -0.929528,7.75866 -0.672047,1.39724 -1.70433,2.21457 -3.33661,2.5689 -1.49528,0.323622 -3.49606,0.23622 -6.22205,-0.155906 -0.327165,-0.0271654 -0.581102,-0.298819 -0.581102,-0.630709 0,-0.510236 -0.00354331,-0.812598 -0.00944882,-1.14331 -0.0708661,-4.95118 -0.207874,-14.5063 7.55315,-17.3858 1.43504,-0.532677 2.32323,-0.314173 2.87598,0.329528 0.504331,0.584646 0.630709,1.47402 0.630709,2.42953l0 1.19173 -1.26378 0.837402 0 -2.02913c0,-0.693307 -0.0649606,-1.30866 -0.320079,-1.60512 -0.206693,-0.239764 -0.646063,-0.27874 -1.48346,0.0330709l0.0011811 0zm5.91142 2.78031c0,-2.47087 0,-4.94173 0,-7.4126 0,-0.232677 0.190157,-0.422835 0.422835,-0.422835 0.232677,0 0.421654,0.190157 0.421654,0.422835l0 7.4126c0,0.240945 0.131102,0.314173 0.307087,0.431102 1.49055,0.98622 2.60197,1.72323 3.52913,2.39409 0.699213,0.381496 1.43031,0.569291 2.10709,0.6 0.72874,0.0330709 1.38425,-0.116929 1.85197,-0.409843 0.197244,-0.121654 0.457087,-0.0614173 0.579921,0.137008 0.122835,0.197244 0.0614173,0.455906 -0.134646,0.577559 -0.608268,0.379134 -1.43504,0.575197 -2.33268,0.535039 -0.0933071,-0.00472441 -0.190157,-0.011811 -0.287008,-0.0212598 0.99685,0.887008 1.90984,1.88858 3.1748,3.4311 0.147638,0.179528 0.120472,0.442913 -0.057874,0.591732 -0.178346,0.146457 -0.444094,0.120472 -0.590551,-0.0590551 -2.83937,-3.45709 -3.86102,-4.13386 -8.30315,-7.0748 -0.425197,-0.281102 -0.687402,-0.592913 -0.687402,-1.13268l-0.0011811 0zm-1.52835 1.13268c-4.44213,2.94213 -5.46614,3.61772 -8.30433,7.0748 -0.147638,0.179528 -0.411024,0.206693 -0.590551,0.0590551 -0.179528,-0.148819 -0.205512,-0.412205 -0.0590551,-0.591732 1.26496,-1.54252 2.17795,-2.54409 3.1748,-3.42992 -0.0968504,0.00826772 -0.191339,0.0165354 -0.287008,0.0200787 -0.897638,0.0401575 -1.72441,-0.154724 -2.3315,-0.533858 -0.197244,-0.122835 -0.258661,-0.381496 -0.134646,-0.57874 0.121654,-0.198425 0.382677,-0.258661 0.579921,-0.135827 0.467717,0.292913 1.12205,0.442913 1.85079,0.408661 0.677953,-0.0307087 1.41024,-0.218504 2.10827,-0.6 0.927165,-0.670866 2.0374,-1.40787 3.52795,-2.39409 0.17126,-0.112205 0.308268,-0.186614 0.308268,-0.429921l0 -7.41378c0,-0.232677 0.187795,-0.421654 0.421654,-0.421654 0.232677,0 0.421654,0.188976 0.421654,0.421654l0 7.41378c0,0.544488 -0.265748,0.855118 -0.68622,1.13268l0 -0.0011811zm1.45984 0.509055c5.06929,3.35669 5.76969,3.8185 9.61772,8.64331 0.146457,0.180709 0.115748,0.445276 -0.0673228,0.590551 -0.180709,0.145276 -0.445276,0.114567 -0.590551,-0.0673228 -0.933071,-1.16929 -1.6748,-2.0752 -2.34331,-2.82992 -0.0011811,0.207874 -0.011811,0.411024 -0.0307087,0.612992 -0.0602362,0.61063 -0.205512,1.19055 -0.438189,1.70197 -0.0956693,0.211417 -0.344882,0.305906 -0.556299,0.210236 -0.211417,-0.0944882 -0.305906,-0.343701 -0.210236,-0.556299 0.193701,-0.42874 0.316535,-0.92126 0.368504,-1.43858 0.0484252,-0.49252 0.0330709,-1.00748 -0.0472441,-1.51654 -1.56614,-1.59567 -2.9811,-2.54055 -6.05551,-4.57441 -3.07441,2.03386 -4.48937,2.97874 -6.05433,4.57441 -0.0814961,0.509055 -0.0968504,1.02402 -0.0484252,1.51654 0.0519685,0.517323 0.174803,1.00984 0.369685,1.43858 0.0956693,0.211417 0.0011811,0.461811 -0.211417,0.556299 -0.210236,0.0956693 -0.46063,0.0011811 -0.556299,-0.210236 -0.232677,-0.511417 -0.377953,-1.09134 -0.437008,-1.70197 -0.0212598,-0.201969 -0.0307087,-0.405118 -0.0318898,-0.612992 -0.667323,0.754724 -1.41024,1.66063 -2.34213,2.82992 -0.145276,0.18189 -0.411024,0.211417 -0.591732,0.0673228 -0.183071,-0.145276 -0.212598,-0.409843 -0.0673228,-0.590551 3.84803,-4.8248 4.54843,-5.28661 9.62008,-8.64331 0.302362,-0.201969 0.398031,-0.201969 0.702756,0l0.0011811 0zm5.57953 -5.60906c7.75984,2.87835 7.62283,12.4346 7.55315,17.3858 -0.00472441,0.330709 -0.0106299,0.633071 -0.0106299,1.14331 0,0.33189 -0.253937,0.603543 -0.579921,0.630709 -2.72598,0.392126 -4.72677,0.480709 -6.22205,0.155906 -1.63228,-0.354331 -2.66575,-1.17165 -3.3378,-2.5689 -1.02047,-2.1189 -0.975591,-5.85709 -0.928346,-7.75866l1.24488 0.824409c-0.0248031,1.90984 0.0425197,4.7752 0.818504,6.38622 0.49252,1.02047 1.25669,1.61929 2.46969,1.8815 1.24724,0.271654 2.9563,0.210236 5.27598,-0.100394 0.0023622,-0.183071 0.00590551,-0.392126 0.00944882,-0.608268 0.0661417,-4.64764 0.196063,-13.6146 -6.73465,-16.1846 -0.835039,-0.311811 -1.27559,-0.272835 -1.48228,-0.0330709 -0.256299,0.296457 -0.320079,0.911811 -0.320079,1.60512l0 2.03031 -1.26378 -0.838583 0 -1.19173c0,-0.955512 0.126378,-1.84488 0.630709,-2.42953 0.553937,-0.643701 1.43976,-0.862205 2.87717,-0.329528l0 0z"/>
 </g>
</svg>
