<?xml version="1.0" encoding="UTF-8"?>
<!DOCTYPE svg PUBLIC "-//W3C//DTD SVG 1.1//EN" "http://www.w3.org/Graphics/SVG/1.1/DTD/svg11.dtd">
<!-- Creator: CorelDRAW -->
<svg xmlns="http://www.w3.org/2000/svg" xml:space="preserve" width="30px" height="30px" style="shape-rendering:geometricPrecision; text-rendering:geometricPrecision; image-rendering:optimizeQuality; fill-rule:evenodd; clip-rule:evenodd"
viewBox="0 0 30 29.9976"
 xmlns:xlink="http://www.w3.org/1999/xlink">
 <defs>
  <style type="text/css">
   <![CDATA[
    .fil0 {fill:none}
    .fil1 {fill:#2FA3DC}
   ]]>
  </style>
 </defs>
 <g id="Layer_x0020_1">
  <metadata id="CorelCorpID_0Corel-Layer"/>
  <rect class="fil0" x="0.000561758" y="-0.000561716" width="29.9989" height="29.9988"/>
  <g id="_151254200">
   <path id="_151253864" class="fil1" d="M23.4921 19.0713c-0.281102,1.08189 -1.21299,1.8685 -2.3126,2.01969l0 1.4563c-0.113386,0.0448819 -0.237402,0.069685 -0.374409,0.069685 -0.137008,0 -0.266929,-0.023622 -0.389764,-0.0685039l0 -1.45748c-1.11142,-0.147638 -2.0185,-0.937795 -2.3126,-2.01969l0.695669 -0.38622c0.173622,0.982677 1.00276,1.66772 1.99843,1.66772 0.977953,0 1.84961,-0.689764 1.99724,-1.66772l0.698031 0.38622zm-8.49094 6.15354c0.316535,0 0.572835,0.256299 0.572835,0.574016 0,0.316535 -0.256299,0.572835 -0.572835,0.572835 -0.316535,0 -0.574016,-0.256299 -0.574016,-0.572835 0,-0.317717 0.256299,-0.574016 0.574016,-0.574016l0 0zm1.24252 -22.461l-2.48504 0 0 2.48504 -2.48504 0 0 2.48504 2.48504 0 0 2.48504 2.48504 0 0 -2.48504 2.48504 0 0 -2.48504 -2.48504 0 0 -2.48504z"/>
   <path id="_151253960" class="fil1" d="M10.148 9.49724c-2.45669,-0.357874 -4.10079,1.65354 -3.74646,4.08071 0.159449,1.09252 0.542126,2.03622 1.07126,2.70945 1.21063,1.53898 3.08031,1.53898 4.28976,0 0.616535,-0.784252 1.11969,-2.15079 1.11969,-3.35079 0,-1.67717 -0.976772,-3.18307 -2.73425,-3.43937l0 0zm0.0472441 9.59409c0.540945,-0.137008 1.04055,-0.390945 1.5,-0.720472l0.172441 0.721654 -1.19409 0.914173 -0.478346 -0.915354zm-1.94291 -0.291732c0.256299,0.125197 0.518504,0.223228 0.787795,0.291732l-0.478346 0.915354 -1.19409 -0.914173 0.173622 -0.721654c0.231496,0.165354 0.467717,0.309449 0.711024,0.42874l0 0zm-1.10079 1.0878l1.3063 0.999213c0.199606,0.153543 0.474803,0.0685039 0.579921,-0.147638l0.579921 -1.10787 0.625984 1.18346c0.127559,0.167717 0.367323,0.200787 0.535039,0.0720472l1.3063 -0.999213c-0.504331,1.51772 -1.47402,3.51024 -2.46732,4.42441 -0.992126,-0.914173 -1.96181,-2.90669 -2.46614,-4.42441l0 0zm6.43465 -0.395669c-0.264567,0.383858 -0.401575,0.86811 -0.401575,1.34646 0,1.00157 0.637795,2.50157 1.81654,2.50157 1.17756,0 1.81535,-1.5 1.81535,-2.50157 0,-0.478346 -0.135827,-0.962598 -0.401575,-1.34646 -0.159449,-0.230315 -0.367323,-0.425197 -0.620079,-0.556299 0.334252,0.465354 0.486614,1.15394 0.0377953,1.60157 -0.948425,0.949606 -2.24882,-0.347244 -1.42087,-1.1752 0.148819,-0.148819 0.390945,-0.148819 0.540945,0 0.148819,0.15 0.148819,0.390945 0,0.540945 -0.0744094,0.0755906 0,0.16063 0.0744094,0.188976 0.17126,0.0649606 0.338976,-0.119291 0.316535,-0.315354 -0.0496063,-0.420472 -0.458268,-0.762992 -0.881102,-0.832677 -0.336614,-0.0555118 -0.660236,0.23622 -0.876378,0.548031l0 0zm3.96378 -0.987402c0.023622,-1.60276 0.0649606,-3.21614 0.0649606,-4.81535 0.0011811,-1.86969 1.20945,-3.47008 3.18189,-3.47008 1.97362,0 3.18189,1.60039 3.18189,3.47008 0,1.59803 0.0744094,3.2374 0.114567,4.84252l-1.15866 -0.643701 -0.0212598 -0.883465c-0.0129921,0.0165354 -0.0248031,0.034252 -0.0377953,0.0519685 -0.550394,0.737008 -1.26732,1.19173 -2.07874,1.19173 -0.810236,0 -1.52717,-0.454724 -2.07756,-1.19173l-0.00590551 -0.00826772 -0.011811 0.816142 -1.15157 0.640157zm1.21299 -4.82008c0.351969,-0.18189 0.638976,-0.437008 0.832677,-0.787795 -0.16063,-0.194882 -0.311811,-0.405118 -0.454724,-0.635433 -0.249213,0.401575 -0.377953,0.902362 -0.377953,1.42323l0 0zm1.37953 -0.223228c-0.316535,0.473622 -0.767717,0.804331 -1.28858,1.02402 0.178346,0.887008 0.829134,2.61614 1.94291,2.61614 1.09016,0 1.74094,-1.66772 1.92874,-2.53937 -0.973228,-0.101575 -1.84724,-0.455906 -2.58307,-1.10079l0 0zm0.654331 -2.09528c-0.400394,0 -0.778346,0.0933071 -1.11496,0.322441 0.00826772,0.00944882 0.0153543,0.0200787 0.0212598,0.0318898 0.711024,1.21417 1.7185,1.94409 3.12638,2.08583 0.0212598,-0.576378 -0.111024,-1.1811 -0.448819,-1.65591 -0.380315,-0.535039 -0.940157,-0.784252 -1.58386,-0.784252l0 0zm4.30039 8.61378c0.861024,0.509055 1.38543,1.68189 1.69843,3.18189 0.250394,1.19646 0.375591,2.62323 0.43937,4.07126l-1.14331 0c-0.0625984,-1.37362 -0.18189,-2.7189 -0.415748,-3.8374 -0.206693,-0.992126 -0.491339,-1.78346 -0.88937,-2.20748 -0.0377953,0.28937 -0.0673228,0.581102 -0.0874016,0.876378 0.129921,0.930709 0.577559,1.89331 0.577559,2.35157 0,0.625984 -0.16063,1.14213 -0.454724,1.55197 0.0472441,0.422835 0.103937,0.844488 0.165354,1.26496 -2.12126,0 -4.24252,0 -6.36378,0 -0.0791339,-0.376772 -0.166535,-0.726378 -0.264567,-1.05 -0.336614,-1.1185 -0.785433,-1.90984 -1.32992,-2.37992 -0.092126,-0.080315 -0.287008,-0.0944882 -0.398031,-0.0496063l-0.204331 1.28031 -1.43386 -0.764173 -1.43386 0.764173 -0.193701 -1.2874c-0.106299,-0.0389764 -0.305906,-0.0188976 -0.393307,0.0566929 -0.54685,0.472441 -0.987402,1.24843 -1.32047,2.34331 -0.100394,0.334252 -0.191339,0.695669 -0.271654,1.08661 -2.87126,0 -5.74252,0 -8.61378,0 0.191339,-2.86063 0.514961,-6.22677 0.977953,-7.12677 0.510236,-0.829134 1.58031,-1.22362 2.98583,-1.61575l0.206693 -0.86811c0.0661417,-0.296457 0.413386,-0.39685 0.625984,-0.209055 0.598819,0.530315 1.28031,0.92126 2.05512,1.01339 0.775984,-0.092126 1.45748,-0.483071 2.0563,-1.01339 0.212598,-0.187795 0.559843,-0.0874016 0.624803,0.210236l0.209055 0.871654c0.227953,0.0625984 0.47126,0.140551 0.721654,0.231496 0.347244,-0.360236 0.800787,-0.617717 1.35591,-0.706299 0.138189,-0.0212598 0.276378,-0.0330709 0.415748,-0.0330709 0.138189,0 0.277559,0.011811 0.415748,0.0330709 0.713386,0.113386 1.25906,0.509055 1.6252,1.03819 0.109843,0.158268 0.20315,0.329528 0.279921,0.507874 0.0814961,-0.0401575 0.161811,-0.080315 0.233858,-0.120472 0.455906,2.64567 1.7126,4.05945 3.2752,4.05945 1.56378,0 2.81929,-1.38189 3.27638,-4.02874 0.323622,0.180709 0.670866,0.316535 0.989764,0.50315l0 0zm-15.4795 -9.37441c1.59803,0 2.29016,1.39606 2.08346,2.81102 -0.12874,0.88937 -0.42874,1.64291 -0.838583,2.16378 -0.747638,0.950787 -1.74094,0.950787 -2.48858,0 -0.464173,-0.590551 -0.874016,-1.69134 -0.874016,-2.64331 0,-1.29213 0.742913,-2.3315 2.11772,-2.3315l0 0z"/>
  </g>
 </g>
</svg>
