<?xml version="1.0" encoding="utf-8"?>
<!-- Generator: Adobe Illustrator 15.1.0, SVG Export Plug-In  -->
<!DOCTYPE svg PUBLIC "-//W3C//DTD SVG 1.1//EN" "http://www.w3.org/Graphics/SVG/1.1/DTD/svg11.dtd" [
	<!ENTITY ns_flows "http://ns.adobe.com/Flows/1.0/">
]>
<svg version="1.1"
	 xmlns="http://www.w3.org/2000/svg" xmlns:xlink="http://www.w3.org/1999/xlink" xmlns:a="http://ns.adobe.com/AdobeSVGViewerExtensions/3.0/"
	 x="0px" y="0px" width="30px" height="30px" viewBox="-2.2 -0.1 30 30" enable-background="new -2.2 -0.1 30 30"
	 xml:space="preserve">
<defs>
</defs>
<path fill="#2FA3DC" d="M25.6,25.2c0,0-3.3-5.7-3.9-6.7c0.7-0.2,1.4-0.4,1.7-0.9c0.5-0.9-0.4-2.3-0.2-3.2c0.2-0.9,1.7-1.8,1.7-2.7
	c0-0.9-1.5-2-1.7-3c-0.2-0.9,0.7-2.3,0.2-3.2c-0.5-0.9-2.2-0.8-2.9-1.4c-0.7-0.7-0.7-2.3-1.6-2.8c-0.9-0.5-2.3,0.5-3.2,0.2
	C14.7,1.4,13.8,0,12.9,0c-1,0-2.6,1.6-2.8,1.7C9.1,1.9,7.7,1,6.8,1.4C5.9,1.9,5.9,3.5,5.2,4.2C4.5,4.9,2.9,4.8,2.4,5.6
	C1.9,6.5,2.8,7.9,2.5,8.8c-0.2,0.9-1.7,1.9-1.7,2.9c0,1,1.4,1.8,1.7,2.7c0.2,0.9-0.7,2.3-0.1,3.2c0.3,0.5,0.9,0.7,1.5,0.8
	c0.1,0,0.2,0.1,0.1,0.2c-0.4,0.7-3.8,6.6-3.8,6.6c-0.3,0.5-0.1,0.9,0.5,0.9l2.7,0.1c0.5,0,1.2,0.4,1.5,0.9l1.4,2.2
	c0.3,0.5,0.8,0.4,1,0c0,0,4-6.8,4-6.8c0.1-0.1,0.2-0.1,0.2,0c0.4,0.4,1,0.7,1.5,0.7c0.5,0,1-0.3,1.4-0.7c0,0,0.1-0.1,0.2,0
	c0,0,4,6.7,4,6.7c0.3,0.5,0.7,0.5,1,0l1.4-2.2c0.3-0.5,1-0.8,1.5-0.9l2.7-0.1C25.6,26.1,25.8,25.7,25.6,25.2z M17.2,19.2
	c-2.9,1.7-6.5,1.5-9.1-0.2c-3.9-2.5-5.2-7.7-2.9-11.7C7.6,3.2,12.9,1.7,17.1,4c0,0,0,0,0.1,0c0,0,0.1,0,0.1,0
	c1.3,0.7,2.4,1.8,3.2,3.2C22.9,11.4,21.4,16.7,17.2,19.2z"/>
<path fill="#2FA3DC" d="M16.6,5.3C16.6,5.3,16.5,5.3,16.6,5.3c-2.3-1.3-5.1-1.4-7.5,0c-3.5,2-4.7,6.5-2.7,10
	c0.6,1.1,1.5,1.9,2.5,2.5C9,17.9,9,17.9,9.1,18c3.5,2,8.1,0.8,10.1-2.7C21.3,11.8,20.1,7.3,16.6,5.3z M17.5,11l-1.2,1.2
	c-0.4,0.4-0.6,1.1-0.5,1.6l0.3,1.7c0.1,0.5-0.2,0.7-0.7,0.5l-1.5-0.8c-0.5-0.2-1.3-0.2-1.7,0L10.5,16c-0.5,0.2-0.8,0-0.7-0.5
	l0.3-1.7c0.1-0.5-0.1-1.3-0.5-1.6L8.3,11c-0.4-0.4-0.3-0.7,0.3-0.8l1.7-0.2c0.5-0.1,1.2-0.5,1.4-1l0.8-1.5c0.2-0.5,0.6-0.5,0.9,0
	L14.1,9c0.2,0.5,0.9,0.9,1.4,1l1.7,0.2C17.7,10.3,17.8,10.7,17.5,11z"/>
</svg>
