<?xml version="1.0" encoding="UTF-8"?>
<!DOCTYPE svg PUBLIC "-//W3C//DTD SVG 1.1//EN" "http://www.w3.org/Graphics/SVG/1.1/DTD/svg11.dtd">
<!-- Creator: CorelDRAW -->
<svg xmlns="http://www.w3.org/2000/svg" xml:space="preserve" width="30px" height="30px" style="shape-rendering:geometricPrecision; text-rendering:geometricPrecision; image-rendering:optimizeQuality; fill-rule:evenodd; clip-rule:evenodd"
viewBox="0 0 30 29.9976"
 xmlns:xlink="http://www.w3.org/1999/xlink">
 <defs>
  <style type="text/css">
   <![CDATA[
    .fil0 {fill:none}
    .fil1 {fill:#2FA3DC}
   ]]>
  </style>
 </defs>
 <g id="Layer_x0020_1">
  <metadata id="CorelCorpID_0Corel-Layer"/>
  <rect class="fil0" x="0.000561758" y="-0.000561716" width="29.9989" height="29.9988"/>
  <g id="_150776208">
   <path id="_149084592" class="fil1" d="M10.6949 12.1902c-0.372047,-0.250394 -0.620079,-0.58937 -0.762992,-0.968504 -0.144094,-0.376772 -0.18189,-0.791339 -0.13937,-1.19173 0.0425197,-0.393307 0.162992,-0.777165 0.340157,-1.09724 0.184252,-0.335433 0.433465,-0.609449 0.725197,-0.77126 0.253937,-0.637795 0.672047,-1.07598 1.19173,-1.37598 0.509055,-0.294094 1.10669,-0.448819 1.7374,-0.529134 0.403937,-0.294094 0.923622,-0.527953 1.55669,-0.618898 0.55748,-0.0814961 1.20472,-0.0507874 1.93583,0.15 0.174803,0.0472441 0.34252,0.0909449 0.510236,0.133465 0.994488,0.255118 1.97244,0.506693 2.80866,1.22598 0.0224409,0.0200787 0.069685,0.0602362 0.11811,0.100394 0.422835,0.357874 0.862205,0.727559 1.0878,1.54016 0.11811,0.0555118 0.230315,0.132283 0.333071,0.231496 0.146457,0.142913 0.274016,0.33189 0.367323,0.56811 0.264567,0.664961 0.230315,1.17165 0.00354331,1.57795 -0.116929,0.209055 -0.282283,0.381496 -0.480709,0.529134 0.0543307,0.0602362 0.105118,0.127559 0.151181,0.201969 0.00472441,0.00708661 0.00944882,0.0153543 0.0153543,0.023622l0.00354331 0.00590551 -0.0011811 0.0011811 0.0011811 0.0011811c0.152362,0.262205 0.144094,0.643701 0.0425197,1.01339 -0.101575,0.366142 -0.301181,0.748819 -0.519685,0.974409 -0.348425,0.360236 -0.744094,0.636614 -1.17756,0.800787 -0.147638,0.0566929 -0.3,0.0992126 -0.454724,0.12874 -0.00708661,0.111024 -0.0248031,0.220866 -0.0437008,0.341339 -0.0437008,0.269291 -0.0980315,0.608268 -0.0106299,1.18583 0.108661,0.392126 0.135827,0.805512 0.111024,1.22598 -0.0259843,0.413386 -0.100394,0.827953 -0.196063,1.23425 -0.263386,1.11024 -0.473622,2.29488 -0.467717,3.4122 0.00590551,1.08898 0.212598,2.12008 0.773622,2.9622 0.120472,0.179528 0.0720472,0.421654 -0.106299,0.540945 -0.178346,0.119291 -0.420472,0.0720472 -0.539764,-0.10748 -0.656693,-0.985039 -0.9,-2.1626 -0.905906,-3.39213 -0.00472441,-1.2 0.212598,-2.44252 0.485433,-3.59528 0.0885827,-0.372047 0.157087,-0.745276 0.178346,-1.10079 0.0188976,-0.323622 0.0023622,-0.637795 -0.0744094,-0.930709 -0.255118,-0.388583 -0.598819,-0.804331 -0.948425,-1.18465 -0.419291,-0.455906 -0.839764,-0.853937 -1.12795,-1.09961 -0.25748,0.0767717 -0.499606,0.0944882 -0.721654,0.0330709 -0.170079,-0.0472441 -0.317717,-0.133465 -0.438189,-0.266929 -0.13937,0.0909449 -0.288189,0.148819 -0.488976,0.162992 -0.454724,0.0318898 -0.877559,-0.0153543 -1.24488,-0.129921 -0.392126,-0.121654 -0.724016,-0.322441 -0.972047,-0.587008 -0.194882,-0.207874 -0.281102,-0.408661 -0.340157,-0.63189 -0.127559,0.0448819 -0.261024,0.0850394 -0.39685,0.114567 -0.271654,0.057874 -0.555118,0.0791339 -0.824409,0.034252 -0.134646,-0.0224409 -0.263386,-0.0625984 -0.383858,-0.116929 -0.243307,-0.112205 -0.451181,-0.285827 -0.587008,-0.50315 -0.0507874,-0.080315 -0.092126,-0.166535 -0.122835,-0.256299l0 0zm0.724016 -0.346063c0.00826772,0.0283465 0.011811,0.057874 0.0141732,0.0874016 0.00826772,0.0354331 0.023622,0.0685039 0.0437008,0.100394 0.0555118,0.0874016 0.144094,0.16063 0.250394,0.209055 0.057874,0.0271654 0.120472,0.046063 0.186614,0.0566929 0.162992,0.0271654 0.348425,0.011811 0.535039,-0.0283465 0.185433,-0.0401575 0.36378,-0.103937 0.519685,-0.174803 0.0531496,-0.13937 0.116929,-0.263386 0.185433,-0.375591 0.0933071,-0.154724 0.186614,-0.274016 0.266929,-0.369685 0.159449,-0.191339 0.437008,-0.440551 0.80315,-0.540945 0.183071,-0.0496063 0.382677,-0.0625984 0.594094,-0.0153543 0.165354,-0.206693 0.367323,-0.398031 0.63189,-0.551575 0.312992,-0.180709 0.705118,-0.303543 1.21299,-0.325984 0.197244,-0.33189 0.559843,-0.643701 1.0252,-0.827953 0.462992,-0.183071 1.03583,-0.248031 1.65236,-0.0850394 0.207874,0.0555118 0.33189,0.26811 0.277559,0.477165 -0.0543307,0.207874 -0.26811,0.33189 -0.475984,0.277559 -0.438189,-0.116929 -0.842126,-0.0720472 -1.16693,0.0566929 -0.369685,0.145276 -0.624803,0.38622 -0.689764,0.601181l-0.0011811 0c-0.0484252,0.161811 -0.200787,0.27874 -0.379134,0.275197 -0.474803,-0.00944882 -0.81378,0.080315 -1.06417,0.225591 -0.237402,0.137008 -0.405118,0.330709 -0.538583,0.535039 -0.101575,0.18189 -0.330709,0.250394 -0.517323,0.154724 -0.134646,-0.069685 -0.255118,-0.0744094 -0.356693,-0.046063 -0.173622,0.0472441 -0.32126,0.184252 -0.409843,0.290551 -0.0637795,0.0767717 -0.137008,0.170079 -0.199606,0.271654 -0.0472441,0.0791339 -0.092126,0.167717 -0.12874,0.266929l0.0188976 0.0874016c0.0484252,0.230315 0.0874016,0.413386 0.207874,0.542126 0.152362,0.162992 0.370866,0.290551 0.637795,0.374409 0.277559,0.0862205 0.602362,0.121654 0.961417,0.0956693 0.0968504,-0.00590551 0.210236,-0.109843 0.377953,-0.262205l0.0106299 -0.00944882c0.159449,-0.144094 0.405118,-0.132283 0.550394,0.0271654 0.0401575,0.0437008 0.069685,0.0956693 0.0850394,0.15 0.0437008,0.13937 0.0992126,0.209055 0.16063,0.225591 0.102756,0.0283465 0.258661,-0.00708661 0.447638,-0.0826772 0.140551,-0.0566929 0.295276,-0.0259843 0.402756,0.0673228 0.304724,0.242126 0.842126,0.735827 1.36654,1.30512 0.108661,0.119291 0.218504,0.242126 0.325984,0.367323 0.00944882,-0.0755906 0.0200787,-0.145276 0.0307087,-0.211417 0.011811,-0.0708661 0.0224409,-0.134646 0.0283465,-0.197244 -0.0307087,-0.00354331 -0.0625984,-0.00826772 -0.0933071,-0.0129921 -0.212598,-0.034252 -0.357874,-0.233858 -0.323622,-0.445276 0.0330709,-0.212598 0.232677,-0.357874 0.445276,-0.323622 0.109843,0.0165354 0.217323,0.0248031 0.323622,0.0224409 0.00590551,0 0.011811,0 0.0177165,0 0.205512,-0.00708661 0.405118,-0.0484252 0.595276,-0.120472 0.32126,-0.122835 0.622441,-0.333071 0.891732,-0.611811 0.133465,-0.138189 0.259843,-0.389764 0.329528,-0.64252 0.0507874,-0.185433 0.0720472,-0.347244 0.034252,-0.413386l0 0 -0.00472441 -0.00708661 -0.00590551 -0.0106299c-0.0744094,-0.119291 -0.190157,-0.200787 -0.334252,-0.251575 -0.0129921,-0.00354331 -0.0248031,-0.00708661 -0.0366142,-0.011811 -0.266929,-0.080315 -0.624803,-0.0649606 -1.00866,0.00590551 -0.729921,0.137008 -1.52717,0.479528 -2.0811,0.800787 -0.00590551,0.0023622 -0.0106299,0.00590551 -0.0165354,0.00826772l-0.023622 0.0141732c-0.185433,0.108661 -0.424016,0.046063 -0.532677,-0.13937 -0.108661,-0.185433 -0.046063,-0.424016 0.13937,-0.532677l0.023622 -0.0141732c0.00590551,-0.00354331 0.011811,-0.00708661 0.0188976,-0.0106299 0.615354,-0.356693 1.50591,-0.738189 2.32795,-0.891732 0.448819,-0.0838583 0.881102,-0.101575 1.25433,-0.0177165 0.264567,-0.134646 0.475984,-0.285827 0.583465,-0.478346 0.115748,-0.206693 0.120472,-0.493701 -0.0448819,-0.91063 -0.0507874,-0.126378 -0.115748,-0.224409 -0.188976,-0.295276 -0.0602362,-0.0590551 -0.126378,-0.0956693 -0.191339,-0.109843 -0.148819,-0.0295276 -0.274016,-0.145276 -0.307087,-0.303543 -0.147638,-0.702756 -0.522047,-1.01811 -0.882283,-1.32165 -0.0318898,-0.0283465 -0.0649606,-0.0555118 -0.121654,-0.103937 -0.700394,-0.603543 -1.58976,-0.831496 -2.49331,-1.06417 -0.175984,-0.0448819 -0.35315,-0.0909449 -0.523228,-0.137008 -0.616535,-0.168898 -1.15748,-0.194882 -1.62047,-0.12874 -0.529134,0.0767717 -0.955512,0.27874 -1.27323,0.529134l0 0c-0.0555118,0.0425197 -0.124016,0.0720472 -0.198425,0.080315 -0.574016,0.0649606 -1.11024,0.19252 -1.54134,0.441732 -0.401575,0.231496 -0.719291,0.579921 -0.898819,1.09843 -0.034252,0.112205 -0.116929,0.207874 -0.235039,0.252756 -0.184252,0.069685 -0.356693,0.253937 -0.490157,0.497244 -0.12874,0.233858 -0.217323,0.514961 -0.249213,0.804331 -0.0307087,0.284646 -0.00472441,0.574016 0.0933071,0.831496 0.0389764,0.101575 0.0897638,0.198425 0.152362,0.288189 0.109843,-0.12874 0.296457,-0.175984 0.458268,-0.101575 0.196063,0.0897638 0.281102,0.320079 0.19252,0.516142 -0.0200787,0.0437008 -0.0330709,0.0862205 -0.0401575,0.126378 -0.00354331,0.023622 -0.00590551,0.0472441 -0.00472441,0.0708661l0 0z"/>
   <path id="_149083608" class="fil1" d="M24.9957 26.1201c0.159449,0.287008 0.057874,0.648425 -0.229134,0.809055 -0.285827,0.16063 -0.648425,0.0590551 -0.807874,-0.227953 -0.0814961,-0.142913 -0.177165,-0.298819 -0.295276,-0.490157 -0.830315,-1.34882 -2.5878,-4.20472 -2.20394,-6.28819 0.262205,-1.4315 0.859843,-2.52402 1.47047,-3.63898 0.784252,-1.43504 1.59213,-2.91142 1.59213,-5.19803 0,-2.15433 -0.881102,-3.9685 -2.30669,-5.25709 -1.49882,-1.35591 -3.60827,-2.13898 -5.94331,-2.13898 -0.496063,0 -0.98622,0.0484252 -1.46575,0.140551 -1.88622,0.36378 -3.6437,1.38898 -4.92992,2.73661 -1.2685,1.32756 -2.06929,2.95866 -2.06929,4.55906 0,0.294094 0.0271654,0.583465 0.0814961,0.865748 0.12874,0.669685 -0.656693,1.99016 -1.48346,3.38031 -0.31063,0.520866 -0.627165,1.05354 -0.91063,1.57323 -0.00472441,0.00944882 -0.00944882,0.0212598 -0.0129921,0.0354331 -0.00354331,0.0141732 -0.00354331,0.023622 -0.0023622,0.0295276 0.0106299,0.0212598 0.034252,0.0425197 0.069685,0.0614173 0.0153543,0.00826772 0.0366142,0.0165354 0.0649606,0.0248031 0.266929,0.0767717 0.735827,0.167717 1.11378,0.242126 0.167717,0.0318898 0.318898,0.0614173 0.432283,0.0862205 0.32126,0.0673228 0.526772,0.382677 0.458268,0.703937 -0.00826772,0.0354331 -0.0177165,0.0685039 -0.0307087,0.100394 -0.034252,0.100394 -0.0661417,0.198425 -0.0980315,0.297638 -0.0625984,0.194882 -0.126378,0.390945 -0.210236,0.609449 0.0625984,0.0141732 0.126378,0.0283465 0.191339,0.0413386 0.285827,0.0590551 0.574016,0.103937 0.767717,0.108661 0.327165,0.00826772 0.585827,0.279921 0.57874,0.607087 -0.00708661,0.327165 -0.279921,0.587008 -0.607087,0.57874 -0.191339,-0.00472441 -0.427559,-0.0330709 -0.672047,-0.0744094 0.537402,0.41811 0.385039,0.948425 0.200787,1.58976 -0.0838583,0.290551 -0.179528,0.628346 -0.0661417,0.944882 0.39685,0.612992 2.46732,0.892913 3.85157,1.07953 0.216142,0.0295276 0.419291,0.0566929 0.490157,0.0661417 0.70748,0.101575 1.18819,0.290551 1.62756,0.729921 0.392126,0.390945 0.702756,0.960236 1.10433,1.85551 0.133465,0.3 -0.0011811,0.650787 -0.3,0.784252 -0.298819,0.133465 -0.649606,-0.0011811 -0.784252,-0.3 -0.340157,-0.762992 -0.590551,-1.23071 -0.862205,-1.50354 -0.224409,-0.223228 -0.509055,-0.325984 -0.95315,-0.389764 -0.227953,-0.0318898 -0.350787,-0.0484252 -0.480709,-0.0661417 -1.62992,-0.219685 -4.07598,-0.550394 -4.73268,-1.6748l0.0023622 -0.0011811c-0.011811,-0.0200787 -0.023622,-0.0413386 -0.0318898,-0.0637795 -0.314173,-0.725197 -0.15,-1.29685 -0.00944882,-1.78583 0.0685039,-0.233858 0.119291,-0.412205 -0.243307,-0.524409 -0.314173,-0.0980315 -0.488976,-0.431102 -0.390945,-0.744094 0.046063,-0.146457 0.142913,-0.262205 0.264567,-0.335433 -0.00708661,-0.0023622 -0.0153543,-0.00590551 -0.023622,-0.0106299 -0.294094,-0.144094 -0.413386,-0.500787 -0.269291,-0.794882 0.153543,-0.309449 0.251575,-0.561024 0.330709,-0.794882 -0.350787,-0.069685 -0.72874,-0.147638 -0.974409,-0.218504 -0.103937,-0.0295276 -0.207874,-0.0720472 -0.305906,-0.126378 -0.253937,-0.138189 -0.453543,-0.344882 -0.571654,-0.591732 -0.126378,-0.262205 -0.16063,-0.562205 -0.0720472,-0.866929 0.0248031,-0.0885827 0.0625984,-0.18189 0.114567,-0.276378 0.271654,-0.497244 0.605906,-1.05945 0.934252,-1.61102 0.70748,-1.18937 1.37953,-2.3185 1.33346,-2.55236 -0.069685,-0.36378 -0.103937,-0.727559 -0.103937,-1.08898 0.0011811,-1.91575 0.929528,-3.8374 2.39882,-5.37756 1.44921,-1.5189 3.43346,-2.67402 5.5689,-3.08504 0.55748,-0.10748 1.12323,-0.164173 1.6878,-0.164173 2.63031,0 5.01969,0.897638 6.73937,2.44961 1.67008,1.51063 2.70118,3.62953 2.70118,6.13701 0,2.58189 -0.883465,4.19646 -1.74094,5.76496 -0.564567,1.0311 -1.11732,2.04094 -1.34528,3.28583 -0.302362,1.63701 1.29331,4.22717 2.04685,5.45079 0.145276,0.23622 0.263386,0.42874 0.322441,0.532677l0 0z"/>
  </g>
 </g>
</svg>
