<?xml version="1.0" encoding="UTF-8"?>
<!DOCTYPE svg PUBLIC "-//W3C//DTD SVG 1.1//EN" "http://www.w3.org/Graphics/SVG/1.1/DTD/svg11.dtd">
<!-- Creator: CorelDRAW -->
<svg xmlns="http://www.w3.org/2000/svg" xml:space="preserve" width="30px" height="30px" style="shape-rendering:geometricPrecision; text-rendering:geometricPrecision; image-rendering:optimizeQuality; fill-rule:evenodd; clip-rule:evenodd"
viewBox="0 0 30 29.9976"
 xmlns:xlink="http://www.w3.org/1999/xlink">
 <defs>
  <style type="text/css">
   <![CDATA[
    .fil0 {fill:none}
    .fil1 {fill:#2FA3DC}
   ]]>
  </style>
 </defs>
 <g id="Layer_x0020_1">
  <metadata id="CorelCorpID_0Corel-Layer"/>
  <rect class="fil0" x="0.000561758" y="-0.000561716" width="29.9989" height="29.9988"/>
  <g id="_151258808">
   <path id="_149083776" class="fil1" d="M22.7244 10.3205c0.201969,0.0708661 0.438189,0.113386 0.712205,0.144094 0.309449,0.0271654 0.676772,0.0791339 1.09016,0.191339 0.144094,0.0354331 0.270472,0.0590551 0.420472,0.0566929 0.294094,-0.00590551 0.564567,-0.114567 0.78189,-0.304724 0.235039,-0.205512 0.416929,-0.506693 0.516142,-0.879921 0.0566929,-0.214961 0.0874016,-0.45 0.0850394,-0.702756 -0.0023622,-0.183071 -0.0224409,-0.36378 -0.0566929,-0.538583 -0.162992,-0.81378 -0.690945,-1.51772 -1.67244,-1.73268 -0.56811,-0.124016 -1.18465,-0.0826772 -1.80709,-0.0224409 -0.988583,0.134646 -1.43031,0.655512 -1.64646,1.37598 -0.114567,0.810236 0.512598,1.49764 0.901181,1.92402 0.209055,0.227953 0.355512,0.377953 0.675591,0.488976l0 0zm-17.8878 2.37874c-0.729921,-0.263386 -1.31457,-0.811417 -1.7185,-1.49882 -0.270472,-0.46063 -0.458268,-0.983858 -0.550394,-1.52008 -0.0933071,-0.535039 -0.0909449,-1.09134 0.0153543,-1.62283 0.249213,-1.24134 1.05945,-2.31732 2.5689,-2.64921 0.806693,-0.175984 1.59685,-0.0956693 2.38819,-0.0165354 0.670866,0.0673228 1.34291,0.134646 1.95827,0.0153543 0.721654,-0.140551 1.37244,-0.461811 2.02913,-0.785433 2.7437,-1.35354 4.20118,-1.35354 6.94488,0 0.656693,0.323622 1.30866,0.646063 2.03031,0.785433 0.615354,0.119291 1.2874,0.0519685 1.95827,-0.0153543 0.791339,-0.0791339 1.5815,-0.159449 2.38701,0.0165354 1.50945,0.33189 2.32087,1.40787 2.57008,2.64921 0.106299,0.531496 0.10748,1.0878 0.0153543,1.62283 -0.0933071,0.53622 -0.279921,1.05945 -0.551575,1.52008 -0.261024,0.445276 -0.597638,0.831496 -1.00039,1.11969 -0.569291,0.40748 -1.27087,0.620079 -2.07992,0.524409 -0.0259843,-0.0023622 -0.0531496,-0.00590551 -0.080315,-0.0106299 -0.057874,-0.0129921 -0.114567,-0.0283465 -0.167717,-0.0448819 -1.03819,-0.292913 -1.41496,-1.14094 -1.71024,-1.80591 -0.12874,-0.290551 -0.179528,-0.416929 -0.370866,-0.625984 -0.168898,-0.186614 -0.372047,-0.408661 -0.561024,-0.666142 -0.0980315,1.54252 -0.206693,3.2315 -1.51772,4.54961 -0.9,0.904724 -0.894094,1.64055 -0.882283,3.11339 0.00590551,0.751181 0.0401575,1.54134 -0.11811,2.2748 -0.116929,0.540945 -0.338976,1.06063 -0.755906,1.50709l0 1.80472c0,0.402756 0.0980315,0.93189 0.239764,1.41732 0.140551,0.480709 0.311811,0.896457 0.458268,1.07244 0.207874,0.24685 0.174803,0.616535 -0.0732283,0.824409 -0.248031,0.206693 -0.616535,0.173622 -0.823228,-0.0732283 -0.248031,-0.296457 -0.500787,-0.874016 -0.682677,-1.49764 -0.172441,-0.588189 -0.290551,-1.2378 -0.290551,-1.74331l0 -2.05039c0,-0.183071 0.0838583,-0.346063 0.214961,-0.453543 0.320079,-0.292913 0.483071,-0.660236 0.56811,-1.05118 0.132283,-0.612992 0.0992126,-1.38898 0.0944882,-2.02323 -0.0141732,-1.79646 -0.0212598,-2.69646 1.22126,-3.94606 1.00157,-1.0063 1.09488,-2.46732 1.17992,-3.80197 0.0744094,-1.1622 0.142913,-2.24764 0.661417,-3.03661 -0.0413386,-0.00708661 -0.0826772,-0.0129921 -0.124016,-0.0212598 -0.874016,-0.170079 -1.59803,-0.526772 -2.32677,-0.887008 -2.40118,-1.18465 -3.50787,-1.18465 -5.91024,0 -0.72874,0.360236 -1.45157,0.716929 -2.32677,0.887008 -0.0413386,0.00826772 -0.0826772,0.0141732 -0.122835,0.0212598 0.518504,0.788976 0.587008,1.87441 0.661417,3.03661 0.0850394,1.33465 0.178346,2.79567 1.17992,3.80197 1.24134,1.24961 1.23425,2.14961 1.22008,3.94606 -0.00472441,0.634252 -0.0366142,1.41024 0.0956693,2.02323 0.0838583,0.390945 0.248031,0.758268 0.56811,1.05118 0.131102,0.10748 0.214961,0.270472 0.214961,0.453543l0 2.05039c0,0.505512 -0.119291,1.15512 -0.290551,1.74331 -0.18189,0.623622 -0.434646,1.20118 -0.682677,1.49764 -0.206693,0.24685 -0.576378,0.279921 -0.823228,0.0732283 -0.248031,-0.207874 -0.281102,-0.577559 -0.0732283,-0.824409 0.146457,-0.175984 0.317717,-0.591732 0.458268,-1.07244 0.141732,-0.485433 0.239764,-1.01457 0.239764,-1.41732l0 -1.80472c-0.41811,-0.446457 -0.638976,-0.966142 -0.755906,-1.50709 -0.158268,-0.733465 -0.124016,-1.52362 -0.11811,-2.2748 0.011811,-1.47283 0.0177165,-2.20866 -0.882283,-3.11339 -1.31102,-1.31811 -1.41969,-3.00709 -1.51772,-4.54961 -0.201969,0.274016 -0.427559,0.516142 -0.654331,0.767717 -0.0885827,0.0980315 -0.177165,0.297638 -0.277559,0.524409 -0.674409,1.5189 -1.73858,2.28307 -3.32126,1.71614l0 0zm-1.16693 -3.87402c-0.0011811,0.252756 0.0295276,0.487795 0.0862205,0.702756 0.0992126,0.373228 0.279921,0.674409 0.514961,0.879921 0.218504,0.190157 0.487795,0.298819 0.783071,0.304724 0.148819,0.0023622 0.276378,-0.0212598 0.419291,-0.0566929 0.413386,-0.112205 0.78189,-0.164173 1.09016,-0.191339 0.275197,-0.0307087 0.510236,-0.0732283 0.712205,-0.144094 0.222047,-0.0767717 0.409843,-0.194882 0.579921,-0.383858 0.50315,-0.559843 1.11378,-1.20709 0.998031,-2.02913 -0.216142,-0.720472 -0.657874,-1.24134 -1.64528,-1.37598 -0.622441,-0.0602362 -1.24016,-0.102756 -1.80945,0.0224409 -0.980315,0.214961 -1.50827,0.918898 -1.67126,1.73268 -0.0354331,0.174803 -0.0543307,0.355512 -0.057874,0.538583l0 0z"/>
   <path id="_149083752" class="fil1" d="M16.2331 19.6453c0.161811,0.140551 0.178346,0.387402 0.0366142,0.549213 -0.141732,0.161811 -0.387402,0.178346 -0.549213,0.0366142 -0.381496,-0.333071 -0.350787,-1.10787 -0.329528,-1.65945 0.00354331,-0.0897638 0.00708661,-0.173622 0.00826772,-0.229134 0.00944882,-0.55748 0.00472441,-1.13504 0,-1.74921 -0.00354331,-0.468898 -0.00826772,-0.954331 -0.00826772,-1.17283 0,-0.596457 0.0862205,-1.0122 0.266929,-1.39961 0.177165,-0.379134 0.426378,-0.693307 0.77126,-1.11378 0.285827,-0.348425 0.51378,-0.737008 0.681496,-1.11732 0.188976,-0.42874 0.301181,-0.839764 0.334252,-1.16811 0.034252,-0.347244 0.0377953,-0.659055 0.0401575,-0.947244 0.00826772,-0.761811 0.0141732,-1.37362 0.46063,-1.96417 -0.249213,0.0271654 -0.493701,0.0625984 -0.747638,0.101575 -0.611811,0.0909449 -1.27795,0.19252 -2.19803,0.19252 -0.920079,0 -1.59449,-0.101575 -2.2122,-0.193701 -0.249213,-0.0377953 -0.488976,-0.0732283 -0.731102,-0.100394 0.445276,0.591732 0.451181,1.20236 0.459449,1.96417 0.0023622,0.288189 0.00590551,0.6 0.0401575,0.947244 0.0330709,0.328346 0.145276,0.73937 0.334252,1.16811 0.167717,0.380315 0.395669,0.768898 0.681496,1.11732 0.343701,0.420472 0.594094,0.734646 0.77126,1.11378 0.180709,0.387402 0.266929,0.80315 0.266929,1.39961 0,0.218504 -0.00472441,0.703937 -0.00826772,1.17283 -0.00472441,0.614173 -0.00944882,1.19173 0.0011811,1.74921 0,0.0555118 0.00354331,0.13937 0.00708661,0.229134 0.0212598,0.551575 0.0507874,1.32638 -0.329528,1.65945 -0.161811,0.141732 -0.40748,0.125197 -0.549213,-0.0366142 -0.141732,-0.161811 -0.125197,-0.408661 0.0366142,-0.549213 0.100394,-0.0885827 0.0791339,-0.648425 0.0637795,-1.04646 -0.00354331,-0.0826772 -0.00590551,-0.159449 -0.00708661,-0.243307 -0.0106299,-0.564567 -0.00590551,-1.14803 -0.0011811,-1.76811 0.0023622,-0.281102 0.00472441,-0.571654 0.00472441,-1.16693 0,-0.475984 -0.0614173,-0.793701 -0.190157,-1.07008 -0.133465,-0.285827 -0.359055,-0.56811 -0.670866,-0.948425 -0.33189,-0.403937 -0.596457,-0.856299 -0.791339,-1.29803 -0.220866,-0.500787 -0.354331,-0.99685 -0.394488,-1.40669 -0.0377953,-0.372047 -0.0413386,-0.70748 -0.0437008,-1.01693 -0.00826772,-0.843307 -0.0141732,-1.44803 -0.948425,-2.06929l0 0c-0.0992126,-0.0649606 -0.167717,-0.177165 -0.173622,-0.304724 -0.0106299,-0.214961 0.154724,-0.398031 0.369685,-0.408661 0.722835,-0.0377953 1.29094,0.0472441 1.91575,0.141732 0.588189,0.0874016 1.22953,0.183071 2.09882,0.183071 0.865748,0 1.49882,-0.0956693 2.08228,-0.183071 0.618898,-0.0933071 1.18465,-0.178346 1.91811,-0.142913 0.125197,0.0011811 0.24685,0.0625984 0.32126,0.174803 0.11811,0.179528 0.069685,0.421654 -0.109843,0.539764 -0.934252,0.62126 -0.940157,1.22598 -0.948425,2.06929 -0.0023622,0.309449 -0.00590551,0.644882 -0.0437008,1.01693 -0.0401575,0.409843 -0.173622,0.905906 -0.394488,1.40669 -0.194882,0.441732 -0.459449,0.894094 -0.791339,1.29803 -0.311811,0.380315 -0.537402,0.662598 -0.670866,0.948425 -0.12874,0.276378 -0.190157,0.594094 -0.190157,1.07008 0,0.595276 0.0023622,0.885827 0.00472441,1.16693 0.00472441,0.620079 0.00944882,1.20354 0,1.76811 -0.0023622,0.0838583 -0.00472441,0.16063 -0.00826772,0.243307 -0.0153543,0.398031 -0.0366142,0.957874 0.0637795,1.04646l0 0z"/>
  </g>
 </g>
</svg>
