<?xml version="1.0" encoding="UTF-8"?>
<!DOCTYPE svg PUBLIC "-//W3C//DTD SVG 1.1//EN" "http://www.w3.org/Graphics/SVG/1.1/DTD/svg11.dtd">
<!-- Creator: CorelDRAW -->
<svg xmlns="http://www.w3.org/2000/svg" xml:space="preserve" width="30px" height="30px" style="shape-rendering:geometricPrecision; text-rendering:geometricPrecision; image-rendering:optimizeQuality; fill-rule:evenodd; clip-rule:evenodd"
viewBox="0 0 30 30"
 xmlns:xlink="http://www.w3.org/1999/xlink">
 <defs>
  <style type="text/css">
   <![CDATA[
    .fil0 {fill:none}
    .fil1 {fill:#2EA2DC}
   ]]>
  </style>
 </defs>
 <g id="Layer_x0020_1">
  <metadata id="CorelCorpID_0Corel-Layer"/>
  <rect class="fil0" x="0.000441551" width="30" height="30"/>
  <path class="fil1" d="M25.728 8.62559c-0.0649606,0.0566929 -0.129921,0.111024 -0.193701,0.162992l-4.32283 -4.32283c0.0519685,-0.0649606 0.106299,-0.129921 0.161811,-0.194882 0.411024,-0.393307 0.424016,-1.04409 0.0330709,-1.45394 -0.394488,-0.409843 -1.04409,-0.424016 -1.45394,-0.0318898 -3.8126,4.39488 -0.431102,7.32638 -1.20472,11.485l-3.01772 -3.0189c0.472441,-0.0885827 0.93189,-0.122835 1.37835,-0.119291l-0.33189 -1.99488c-4.02047,0.0826772 -7.2437,2.54764 -7.35,6.92835 -0.0566929,2.34331 1.06063,5.48976 0.829134,7.17165l-3.49252 -3.49252c0.487795,-0.0673228 1.09961,-0.0212598 1.77874,0.0755906l-0.359055 -2.15315c-2.23583,-0.25748 -3.55394,0.470079 -5.38465,2.14252 -0.399213,0.402756 -0.398031,1.05354 0.00590551,1.45276 0.402756,0.400394 1.05354,0.398031 1.45276,-0.00472441 0.0637795,-0.0566929 0.124016,-0.113386 0.184252,-0.168898l4.47047 4.47047c-0.0555118,0.0590551 -0.112205,0.120472 -0.168898,0.184252 -0.402756,0.399213 -0.405118,1.05 -0.00472441,1.45394 0.399213,0.402756 1.05,0.403937 1.45394,0.00472441 1.87087,-2.04921 2.55827,-3.45591 2.00669,-6.22795 -0.327165,-1.64528 -0.72874,-3.47008 -0.646063,-5.10472l2.57835 2.57835c-0.544488,0.0271654 -1.11024,0.0011811 -1.68307,-0.057874 0.177165,0.615354 0.416929,1.51654 0.584646,2.15551 0.309449,0.0224409 0.611811,0.034252 0.902362,0.0283465 4.78228,-0.116929 7.28268,-3.94724 6.89055,-8.47441 -0.162992,-1.87677 -0.733465,-3.47126 -0.644882,-4.99843l2.7189 2.72008c-0.620079,0.0354331 -1.25079,-0.0377953 -1.9063,-0.147638 0.167717,0.570472 0.40748,1.46811 0.584646,2.14252 1.73976,0.235039 3.5185,0.069685 5.6374,-1.76811 0.392126,-0.409843 0.377953,-1.06063 -0.0318898,-1.45394 -0.409843,-0.392126 -1.06063,-0.377953 -1.45394,0.0318898l-0.0011811 0zm-0.848031 0.611811c-0.344882,0.198425 -0.68622,0.337795 -1.02874,0.431102l-3.51969 -3.51969c0.0933071,-0.34252 0.232677,-0.685039 0.431102,-1.02874l4.11732 4.11732 0 0zm-13.2083 5.64685l3.44528 3.44528c0.387402,-0.0779528 0.758268,-0.19252 1.10551,-0.354331l-4.19646 -4.19764c-0.161811,0.348425 -0.277559,0.71811 -0.354331,1.10669l0 0zm0.765354 -1.79882l4.47756 4.47874c0.26811,-0.199606 0.517323,-0.437008 0.741732,-0.719291l-4.5 -4.5c-0.282283,0.224409 -0.520866,0.472441 -0.719291,0.740551zm1.38425 -1.17874l4.27205 4.27205c0.165354,-0.303543 0.31063,-0.646063 0.432283,-1.02756l-3.67559 -3.67677c-0.382677,0.121654 -0.725197,0.266929 -1.02874,0.432283l0 0zm-4.39134 13.0677l-4.40433 -4.40433c0.270472,-0.220866 0.549213,-0.411024 0.894094,-0.565748l4.07598 4.07598c-0.154724,0.344882 -0.344882,0.623622 -0.565748,0.894094z"/>
 </g>
</svg>
