<?xml version="1.0" encoding="UTF-8"?>
<!DOCTYPE svg PUBLIC "-//W3C//DTD SVG 1.1//EN" "http://www.w3.org/Graphics/SVG/1.1/DTD/svg11.dtd">
<!-- Creator: CorelDRAW -->
<svg xmlns="http://www.w3.org/2000/svg" xml:space="preserve" width="30px" height="30px" style="shape-rendering:geometricPrecision; text-rendering:geometricPrecision; image-rendering:optimizeQuality; fill-rule:evenodd; clip-rule:evenodd"
viewBox="0 0 30 30"
 xmlns:xlink="http://www.w3.org/1999/xlink">
 <defs>
  <style type="text/css">
   <![CDATA[
    .fil0 {fill:none}
    .fil1 {fill:#2AA1DA}
   ]]>
  </style>
 </defs>
 <g id="Layer_x0020_1">
  <metadata id="CorelCorpID_0Corel-Layer"/>
  <rect class="fil0" x="0.000441551" width="30" height="30"/>
  <path class="fil1" d="M14.4177 21.678c-0.76063,-0.377953 -1.29803,-0.76063 -1.63819,-1.14449 -0.340157,-0.385039 -0.53622,-0.790157 -0.551575,-1.19764 -0.0448819,-1.10669 1.00394,-1.82598 2.05512,-2.34803l-0.0755906 -2.62205c-1.8189,-1.01457 -2.74843,-2.19567 -2.74843,-3.78543 0,-1.44921 1.0122,-2.63858 2.56181,-2.75315l-0.0614173 -2.20276c-0.0141732,-0.575197 0.465354,-1.04173 1.04173,-1.04173 0.574016,0 1.05709,0.467717 1.04055,1.04173l-0.0744094 2.60079c0.61063,0.343701 0.874016,0.844488 0.794882,1.27087 -0.119291,0.641339 -0.969685,0.414567 -1.99724,0.235039 -1.22953,-0.21378 -1.75276,0.327165 -1.75039,0.992126 0.0011811,0.622441 0.388583,1.32283 1.10315,1.82362l0.0389764 0.0271654 -0.057874 -2.04685c0.196063,-0.0177165 0.451181,0.0129921 0.522047,0.0259843 0.381496,0.0649606 0.833858,0.17126 1.27441,0.196063l-0.159449 5.57362c0.19252,-0.0933071 0.351969,-0.179528 0.46063,-0.262205 0.337795,-0.226772 0.409843,-0.737008 0.455906,-2.05512 0.272835,0.18189 0.526772,0.381496 0.746457,0.615354 0.618898,0.655512 0.762992,1.8248 -0.216142,2.60551 -0.741732,0.590551 -3.65551,1.37953 -3.6378,2.13543 0.0023622,0.140551 0.0377953,0.200787 0.167717,0.346063 0.148819,0.168898 0.368504,0.344882 0.662598,0.527953l-0.0188976 -0.677953 0.251575 -0.165354c0.327165,-0.188976 0.810236,-0.401575 1.05472,-0.507874l-0.141732 5.5689c0.35315,-0.238583 1.28622,-1.12087 0.864567,-1.58622l0.0448819 -1.49409c0.773622,0.552756 1.13268,1.13268 1.0937,1.7374 -0.0366142,0.556299 -0.500787,1.64764 -2.17677,2.22047 -0.103937,0.0354331 -0.235039,0.0850394 -0.346063,0.0850394 -0.288189,0 -0.514961,-0.232677 -0.520866,-0.520866l-0.0625984 -3.21732zm-2.75079 -19.1787l6.66732 0 0 6.72756 5.8252 -3.36378 3.33307 5.77441 -5.8252 3.3626 5.8252 3.36378 -3.33307 5.77205 -5.8252 -3.36142 0 6.7252 -6.66732 0 0 -6.7252 -5.82638 3.36142 -3.33307 -5.77205 5.82638 -3.36378 -5.82638 -3.3626 3.33307 -5.77441 5.22402 3.01535c0.16063,-0.304724 0.36378,-0.57874 0.602362,-0.817323l0 -5.56181z"/>
 </g>
</svg>
