<?xml version="1.0" encoding="UTF-8"?>
<!DOCTYPE svg PUBLIC "-//W3C//DTD SVG 1.1//EN" "http://www.w3.org/Graphics/SVG/1.1/DTD/svg11.dtd">
<!-- Creator: CorelDRAW -->
<svg xmlns="http://www.w3.org/2000/svg" xml:space="preserve" width="30px" height="30px" style="shape-rendering:geometricPrecision; text-rendering:geometricPrecision; image-rendering:optimizeQuality; fill-rule:evenodd; clip-rule:evenodd"
viewBox="0 0 30 29.9976"
 xmlns:xlink="http://www.w3.org/1999/xlink">
 <defs>
  <style type="text/css">
   <![CDATA[
    .fil0 {fill:none}
    .fil1 {fill:#2FA3DC}
   ]]>
  </style>
 </defs>
 <g id="Layer_x0020_1">
  <metadata id="CorelCorpID_0Corel-Layer"/>
  <rect class="fil0" x="0.000561758" y="-0.000561716" width="29.9989" height="29.9988"/>
  <g id="_151253168">
   <path id="_149084784" class="fil1" d="M27.2776 3.38268l-5.83228 5.8311 0.179528 0.701575 -1.10079 1.10079 -1.7622 -1.76102 1.10079 -1.10079 0.703937 0.177165 5.38937 -5.38937 1.32165 0.440551zm-9.1878 11.0953l-0.916535 -1.87205 -1.87323 -0.916535 -4.68661 4.68543 2.78976 2.78976 0.660236 -0.660236 -0.585827 -0.587008 0.440551 -0.43937 0.585827 0.585827 0.585827 -0.585827 -1.1752 -1.1752 0.440551 -0.440551 1.1752 1.1752 0.585827 -0.585827 -0.585827 -0.585827 0.43937 -0.440551 0.587008 0.585827 0.585827 -0.584646 -1.17638 -1.17638 0.440551 -0.440551 1.17638 1.17638 0.506693 -0.507874z"/>
   <path id="_149084928" class="fil1" d="M7.01693 19.0913l1.39488 1.39488 0.806693 -0.807874 -0.954331 -0.954331 1.7622 -1.76102c0.929528,0.929528 1.85906,1.85906 2.78976,2.78976l-1.7622 1.76102 -0.954331 -0.954331 -0.807874 0.807874 1.39488 1.39488 8.92559 -8.92441 -0.649606 -1.74213 -1.27795 -1.27913 -1.74331 -0.649606 -8.92441 8.92441zm4.54488 4.55787c0.172441,0.243307 0.15,0.582283 -0.0673228,0.800787 -0.243307,0.243307 -0.637795,0.243307 -0.881102,0 -0.733465,-0.733465 -1.46811,-1.46811 -2.20276,-2.20157l-2.64213 2.64213 1.10197 1.10197c0.242126,0.243307 0.242126,0.637795 -0.0011811,0.881102 -0.242126,0.242126 -0.636614,0.242126 -0.879921,0l-3.08386 -3.08386c-0.243307,-0.243307 -0.243307,-0.637795 0,-0.881102 0.243307,-0.243307 0.637795,-0.243307 0.881102,0l1.10079 1.10197 2.64331 -2.64331 -2.20276 -2.20276c-0.243307,-0.242126 -0.243307,-0.636614 0,-0.879921 0.218504,-0.218504 0.558661,-0.240945 0.801969,-0.0673228l9.21142 -9.2126c0.19252,-0.191339 0.477165,-0.232677 0.708661,-0.121654l2.19685 0.818504c0.0862205,0.0330709 0.161811,0.0826772 0.223228,0.144094l0 0 1.46693 1.46811c0.0720472,0.0720472 0.121654,0.157087 0.151181,0.248031l0.826772 2.21811c0.0874016,0.235039 0.023622,0.488976 -0.142913,0.655512l0.0023622 0.0011811 -9.2126 9.2126z"/>
  </g>
 </g>
</svg>
