<?xml version="1.0" encoding="UTF-8"?>
<!DOCTYPE svg PUBLIC "-//W3C//DTD SVG 1.1//EN" "http://www.w3.org/Graphics/SVG/1.1/DTD/svg11.dtd">
<!-- Creator: CorelDRAW -->
<svg xmlns="http://www.w3.org/2000/svg" xml:space="preserve" width="30px" height="30px" style="shape-rendering:geometricPrecision; text-rendering:geometricPrecision; image-rendering:optimizeQuality; fill-rule:evenodd; clip-rule:evenodd"
viewBox="0 0 30 29.9976"
 xmlns:xlink="http://www.w3.org/1999/xlink">
 <defs>
  <style type="text/css">
   <![CDATA[
    .fil0 {fill:none}
    .fil1 {fill:#2FA3DC}
   ]]>
  </style>
 </defs>
 <g id="Layer_x0020_1">
  <metadata id="CorelCorpID_0Corel-Layer"/>
  <rect class="fil0" x="0.000561758" y="-0.000561716" width="29.9989" height="29.9988"/>
  <g id="_149084784">
   <path id="_149083440" class="fil1" d="M12.4713 17.8346c-0.317717,-0.298819 -0.651969,-0.551575 -0.989764,-0.754724 0.361417,-0.537402 0.677953,-1.06417 0.549213,-1.6748 -0.134646,-0.641339 -1.20709,-1.47874 -1.48583,-2.21575 -0.126378,-0.336614 0.424016,-1.10551 0.21378,-1.10906 -0.28937,-0.0023622 -1.50591,0.837402 -1.6252,1.20118 -0.10748,0.323622 0.849213,1.86024 0.698031,2.19803 -0.263386,0.587008 -1.28386,1.11732 -1.64646,1.76575 -0.544488,0.976772 -0.0401575,2.65984 1.26024,3.99094 1.45276,1.48701 3.34843,1.97008 4.23543,1.08189 0.285827,-0.287008 0.431102,-0.681496 0.448819,-1.13504 0.0259843,-0.64252 -0.186614,-1.69843 -0.271654,-2.36693 -0.0224409,-0.179528 0.0625984,-0.355512 0.214961,-0.452362l1.41496 -0.896457c0.525591,-0.333071 0.131102,-1.20709 -0.527953,-0.962598l-1.89094 0.699213c-0.185433,0.069685 -0.314173,0.199606 -0.422835,0.366142l-0.174803 0.264567zm6.15236 1.52126c-0.467717,-1.07835 -1.72087,-1.57205 -2.79921,-1.10433 -1.07835,0.467717 -1.57323,1.72087 -1.10551,2.79921 0.467717,1.07717 1.72087,1.57323 2.79921,1.10551 1.07835,-0.468898 1.57323,-1.72205 1.10551,-2.80039l0 0z"/>
   <path id="_149083416" class="fil1" d="M12.6248 10.4669c3.97323,0 7.58386,3.19606 8.06811,7.13858 0.483071,3.94252 -2.34567,7.13858 -6.31772,7.13858 -3.97323,0 -7.58504,-3.19606 -8.06693,-7.13858 -0.484252,-3.94252 2.34449,-7.13858 6.31654,-7.13858l0 0zm-5.00315 -7.9689l18.4276 0c-0.168898,1.96417 -0.856299,3.94606 -1.51063,5.83465 -0.800787,2.3185 -1.55433,4.49055 -1.14567,6.12402 0.222047,0.885827 0.608268,1.78583 1.00512,2.71299 1.25197,2.91969 2.60551,6.07441 -0.00472441,10.3287l-15.3886 0c0.0885827,-0.514961 0.179528,-1.02756 0.269291,-1.54252 -1.41732,-0.843307 -2.55472,-1.88268 -3.40866,-3.05669 -1.21535,-1.67008 -1.85315,-3.60945 -1.90866,-5.63976 -0.0531496,-2.0126 0.468898,-4.10906 1.57559,-6.11102 0.898819,-1.6252 2.18031,-3.19016 3.85276,-4.59803 -1.8248,-0.587008 -2.76142,-2.29488 -1.76339,-4.05236l0 0z"/>
  </g>
 </g>
</svg>
