<?xml version="1.0" encoding="UTF-8"?>
<!DOCTYPE svg PUBLIC "-//W3C//DTD SVG 1.1//EN" "http://www.w3.org/Graphics/SVG/1.1/DTD/svg11.dtd">
<!-- Creator: CorelDRAW -->
<svg xmlns="http://www.w3.org/2000/svg" xml:space="preserve" width="30px" height="30px" style="shape-rendering:geometricPrecision; text-rendering:geometricPrecision; image-rendering:optimizeQuality; fill-rule:evenodd; clip-rule:evenodd"
viewBox="0 0 30 30"
 xmlns:xlink="http://www.w3.org/1999/xlink">
 <defs>
  <style type="text/css">
   <![CDATA[
    .fil0 {fill:none}
    .fil1 {fill:#2AA1DA;fill-rule:nonzero}
   ]]>
  </style>
 </defs>
 <g id="Layer_x0020_1">
  <metadata id="CorelCorpID_0Corel-Layer"/>
  <rect class="fil0" x="0.000441551" width="30" height="30"/>
  <path class="fil1" d="M15.6236 5.76378c1.0122,0.0472441 1.97244,0.187795 2.86654,0.419291l1.30157 -2.74606 1.12795 0.533858 -1.22835 2.59134c0.904724,0.34252 1.72323,0.790157 2.4378,1.33701l1.84606 -1.62402 0.824409 0.936614 -1.73031 1.52244c0.683858,0.711024 1.2248,1.53898 1.59921,2.47441l2.02913 -0.659055 0.385039 1.18701 -2.04331 0.662598c0.151181,0.656693 0.229134,1.35709 0.229134,2.09882 0,0.119291 -0.0023622,0.238583 -0.00708661,0.357874l2.25354 0.105118 -0.057874 1.24606 -2.32913 -0.108661c-0.161811,0.914173 -0.46063,1.78583 -0.876378,2.59843l2.31024 1.09606 -0.533858 1.12677 -2.41772 -1.14685c-0.452362,0.659055 -0.987402,1.26614 -1.59213,1.80945l-0.0956693 0.0850394 1.96063 2.14961 -0.922441 0.840945 -2.02441 -2.22165c-0.582283,0.402756 -1.21181,0.754724 -1.87795,1.04528l1.15512 2.89606 -1.15866 0.462992 -1.16575 -2.92087c-0.722835,0.226772 -1.48228,0.38622 -2.26535,0.47126l0 3.10866 -1.24724 0 0 -3.03898 -0.0543307 0c-0.574016,0 -1.14567,-0.0614173 -1.70906,-0.174803 -0.403937,-0.0814961 -0.794882,-0.190157 -1.17283,-0.323622l-1.23307 2.59961 -1.12677 -0.535039 1.21535 -2.56299c-0.810236,-0.421654 -1.54606,-0.957874 -2.19213,-1.5685l-2.07874 1.82835 -0.823228 -0.936614 2.04567 -1.8c-0.092126,-0.109843 -0.183071,-0.220866 -0.270472,-0.333071 -0.486614,-0.63189 -0.898819,-1.30984 -1.2248,-1.99961l-2.45079 0.796063 -0.385039 -1.18701 2.37283 -0.770079c-0.261024,-0.801969 -0.402756,-1.59921 -0.411024,-2.34213l-2.39409 -0.113386 0.057874 -1.24488 2.46142 0.114567c0.174803,-0.837402 0.458268,-1.70551 0.861024,-2.54882l-2.42717 -1.15157 0.535039 -1.12677 2.49567 1.18346c0.437008,-0.698031 0.966142,-1.35945 1.59213,-1.95l-1.94291 -2.13189 0.92126 -0.840945 1.98661 2.17795c0.571654,-0.409843 1.20472,-0.762992 1.89921,-1.04528l-1.1374 -2.85354 1.15748 -0.461811 1.16693 2.92205c0.699213,-0.18189 1.45394,-0.294094 2.26417,-0.325984l0 -3.25512 1.24724 0 0 3.26457 0.0011811 0zm0.223228 11.5854c0.301181,0 0.516142,0.152362 0.516142,0.422835 0,0.271654 -0.244488,0.491339 -0.545669,0.491339 -0.301181,0 -0.494882,-0.322441 -0.457087,-0.507874 0.0377953,-0.187795 0.185433,-0.406299 0.486614,-0.406299zm1.81654 -3.55866c0.301181,0 0.516142,0.152362 0.516142,0.422835 0,0.271654 -0.244488,0.490157 -0.545669,0.490157 -0.301181,0 -0.494882,-0.318898 -0.457087,-0.506693 0.0377953,-0.187795 0.186614,-0.40748 0.486614,-0.40748l0 0.0011811zm-3.70984 3.33071c0.302362,0 0.518504,0.152362 0.518504,0.422835 0,0.271654 -0.244488,0.490157 -0.54685,0.490157 -0.301181,0 -0.494882,-0.320079 -0.457087,-0.506693 0.0377953,-0.187795 0.185433,-0.40748 0.485433,-0.40748l0 0.0011811zm-0.676772 -1.95827c0.3,0 0.516142,0.152362 0.516142,0.421654 0,0.272835 -0.244488,0.491339 -0.54685,0.491339 -0.3,0 -0.494882,-0.32126 -0.455906,-0.507874 0.0377953,-0.187795 0.185433,-0.405118 0.486614,-0.405118zm3.17835 3.85984c0.301181,0 0.516142,0.152362 0.516142,0.424016 0,0.270472 -0.244488,0.488976 -0.545669,0.488976 -0.301181,0 -0.494882,-0.318898 -0.457087,-0.506693 0.0377953,-0.187795 0.185433,-0.406299 0.486614,-0.406299zm2.19449 -1.36181c0.302362,0 0.517323,0.152362 0.517323,0.422835 0,0.271654 -0.244488,0.491339 -0.545669,0.491339 -0.301181,0 -0.494882,-0.322441 -0.458268,-0.507874 0.0389764,-0.187795 0.186614,-0.406299 0.486614,-0.406299zm-2.95039 -6.43465c0.3,0 0.516142,0.152362 0.516142,0.421654 0,0.272835 -0.244488,0.491339 -0.54685,0.491339 -0.3,0 -0.494882,-0.320079 -0.455906,-0.507874 0.0377953,-0.187795 0.185433,-0.405118 0.486614,-0.405118zm3.16181 0.262205c0.301181,0 0.516142,0.152362 0.516142,0.422835 0,0.271654 -0.244488,0.490157 -0.545669,0.490157 -0.301181,0 -0.494882,-0.320079 -0.457087,-0.507874 0.0377953,-0.186614 0.185433,-0.405118 0.486614,-0.405118zm1.04764 3.32835c0.301181,0 0.517323,0.152362 0.517323,0.421654 0,0.272835 -0.244488,0.491339 -0.54685,0.491339 -0.3,0 -0.494882,-0.320079 -0.455906,-0.507874 0.0366142,-0.186614 0.184252,-0.405118 0.485433,-0.405118zm-9.46299 1.13504c0.302362,0 0.517323,0.152362 0.517323,0.424016 0,0.270472 -0.244488,0.488976 -0.545669,0.488976 -0.301181,0 -0.494882,-0.318898 -0.458268,-0.506693 0.0389764,-0.187795 0.185433,-0.406299 0.486614,-0.406299zm1.96654 1.14094c0.301181,0 0.517323,0.152362 0.517323,0.422835 0,0.271654 -0.244488,0.491339 -0.54685,0.491339 -0.3,0 -0.494882,-0.322441 -0.455906,-0.507874 0.0366142,-0.187795 0.185433,-0.406299 0.485433,-0.406299zm3.68031 -1.46811c0.302362,0 0.516142,0.152362 0.516142,0.422835 0,0.271654 -0.244488,0.490157 -0.545669,0.490157 -0.301181,0 -0.494882,-0.32126 -0.457087,-0.506693 0.0377953,-0.188976 0.185433,-0.406299 0.486614,-0.406299zm0.151181 -3.10394c0.301181,0 0.516142,0.152362 0.516142,0.422835 0,0.271654 -0.244488,0.490157 -0.545669,0.490157 -0.301181,0 -0.494882,-0.318898 -0.457087,-0.506693 0.0377953,-0.187795 0.186614,-0.406299 0.486614,-0.406299zm-3.93543 0.755906c0.301181,0 0.517323,0.153543 0.517323,0.422835 0,0.271654 -0.244488,0.491339 -0.54685,0.491339 -0.3,0 -0.494882,-0.320079 -0.457087,-0.507874 0.0377953,-0.186614 0.185433,-0.406299 0.486614,-0.406299zm-0.121654 -2.54882c0.302362,0 0.518504,0.153543 0.518504,0.422835 0,0.271654 -0.244488,0.491339 -0.54685,0.491339 -0.3,0 -0.494882,-0.320079 -0.457087,-0.507874 0.0377953,-0.186614 0.185433,-0.406299 0.485433,-0.406299zm8.7189 -0.88937c-1.43622,-1.17874 -3.54685,-1.80354 -6.05433,-1.80354 -2.10236,0 -3.71575,0.664961 -4.90512,1.66063 -1.5189,1.2685 -2.38701,3.07323 -2.72008,4.72323 -0.0413386,0.206693 -0.0625984,0.431102 -0.0625984,0.667323l0.00472441 0c0,1.28504 0.584646,2.83701 1.61693,4.17283 1.03465,1.33819 2.50748,2.43543 4.27441,2.79213 0.389764,0.0779528 0.810236,0.121654 1.2626,0.121654 2.41535,0 4.59567,-0.875197 6.16654,-2.28898 1.53898,-1.38425 2.49094,-3.28937 2.49094,-5.38583 0,-2.01378 -0.765354,-3.58701 -2.07402,-4.65945l0 0z"/>
 </g>
</svg>
