<?xml version="1.0" encoding="UTF-8"?>
<!DOCTYPE svg PUBLIC "-//W3C//DTD SVG 1.1//EN" "http://www.w3.org/Graphics/SVG/1.1/DTD/svg11.dtd">
<!-- Creator: CorelDRAW -->
<svg xmlns="http://www.w3.org/2000/svg" xml:space="preserve" width="30px" height="30px" style="shape-rendering:geometricPrecision; text-rendering:geometricPrecision; image-rendering:optimizeQuality; fill-rule:evenodd; clip-rule:evenodd"
viewBox="0 0 30 29.9976"
 xmlns:xlink="http://www.w3.org/1999/xlink">
 <defs>
  <style type="text/css">
   <![CDATA[
    .fil0 {fill:none}
    .fil1 {fill:#2FA3DC}
   ]]>
  </style>
 </defs>
 <g id="Layer_x0020_1">
  <metadata id="CorelCorpID_0Corel-Layer"/>
  <rect class="fil0" x="0.000561758" y="-0.000561716" width="29.9989" height="29.9988"/>
  <g id="_149084256">
   <path id="_149083272" class="fil1" d="M23.452 22.5508l0.819685 1.93583c0.498425,1.1752 -1.29213,1.93583 -1.79291,0.754724l-0.840945 -1.98543c-1.50354,-3.54567 -0.134646,-5.67165 1.06181,-7.79409 0.738189,-1.30748 1.49528,-2.65039 1.49291,-4.44094 -0.0023622,-4.11969 -3.13228,-6.56811 -7.0937,-6.56811 -3.18425,0 -6.98622,1.63583 -8.29961,4.71614 -0.343701,0.806693 -0.35315,1.6311 -0.360236,2.22992 -0.00708661,0.491339 -0.011811,0.877559 -0.158268,1.23071 -0.603543,1.45984 -1.7126,2.35984 -2.39409,3.64488 0.392126,0.124016 0.735827,0.152362 1.10197,0.385039 0.637795,0.405118 0.549213,0.915354 0.42874,1.6122 -0.134646,0.774803 -0.170079,1.16339 0.261024,1.85079 0.266929,0.425197 0.49252,0.785433 0.488976,1.64055 -0.0011811,0.402756 0.0897638,0.625984 0.242126,0.73937 0.347244,0.258661 1.16339,0.298819 1.63583,0.341339 2.64331,0.235039 2.6622,0.237402 3.76535,2.74961 0.112205,0.256299 0.113386,0.259843 0.23622,0.539764 0.516142,1.17402 -1.2685,1.96063 -1.78583,0.785433 -0.0885827,-0.200787 -0.124016,-0.292913 -0.23622,-0.54685 -0.637795,-1.4563 -0.649606,-1.4563 -2.14724,-1.58976 -0.210236,-0.0188976 -0.422835,-0.0366142 -0.634252,-0.0590551 -0.762992,-0.0791339 -1.44803,-0.250394 -1.99488,-0.656693 -0.646063,-0.479528 -1.0311,-1.19764 -1.02638,-2.31024 0.0011811,-0.288189 -0.0874016,-0.42874 -0.191339,-0.595276 -0.201969,-0.32126 -0.429921,-0.685039 -0.585827,-1.39134 -0.126378,-0.576378 -0.0637795,-1.13386 0.0106299,-1.58976 -1.38898,-0.395669 -2.07047,-1.49291 -1.2248,-2.92913 0.657874,-1.1185 1.77992,-2.2252 2.25,-3.36142 0.00590551,-0.0129921 0.00826772,-0.233858 0.011811,-0.512598 0.00944882,-0.765354 0.023622,-1.81654 0.51378,-2.97047 1.62402,-3.8126 6.11339,-5.90669 10.0925,-5.90669 5.03622,0 9.03543,3.32835 9.04016,8.52165 0.0023622,2.29606 -0.882283,3.86575 -1.74213,5.39409 -0.974409,1.7315 -2.07756,3.46181 -0.944882,6.13583l0 0z"/>
   <path id="_149083248" class="fil1" d="M19.3524 9.12992c0.323622,-0.0153543 0.6,0.233858 0.616535,0.55748 0.0283465,0.570472 0.046063,0.752362 0.0732283,1.32283 0.0212598,0.411024 -0.505512,0.565748 -0.744094,0.219685 -0.464173,-0.669685 -1.51772,-0.341339 -1.51772,0.480709 0,0.820866 1.05236,1.15039 1.51772,0.479528 0.238583,-0.346063 0.765354,-0.190157 0.744094,0.219685 -0.0271654,0.571654 -0.0555118,1.33819 -0.0838583,1.90984 -0.0153543,0.316535 -0.237402,0.543307 -0.555118,0.559843 -0.566929,0.0283465 -1.3311,0.0566929 -1.89803,0.0838583 -0.408661,0.0200787 -0.563386,-0.505512 -0.219685,-0.745276 0.664961,-0.462992 0.340157,-1.51772 -0.475984,-1.51772 -0.814961,0 -1.14094,1.05354 -0.475984,1.51772 0.344882,0.239764 0.190157,0.765354 -0.218504,0.745276 -0.56811,-0.0283465 -0.745276,-0.046063 -1.3122,-0.0744094 -0.322441,-0.0153543 -0.572835,-0.291732 -0.556299,-0.614173 0.0271654,-0.566929 0.0555118,-1.13386 0.0826772,-1.70079 0.00944882,-0.204331 -0.256299,-0.28937 -0.389764,-0.0992126 -0.570472,0.820866 -1.87323,0.419291 -1.87323,-0.587008 0,-1.0063 1.30157,-1.40787 1.87323,-0.588189 0.133465,0.191339 0.399213,0.106299 0.389764,-0.0980315 -0.0271654,-0.553937 -0.0543307,-1.10787 -0.0814961,-1.66181 -0.011811,-0.232677 0.178346,-0.420472 0.409843,-0.409843 0.553937,0.0271654 1.10787,0.0555118 1.66299,0.0826772 0.204331,0.00944882 0.288189,-0.256299 0.0968504,-0.390945 -0.820866,-0.571654 -0.41811,-1.87323 0.587008,-1.87323 1.00748,0 1.40906,1.30276 0.588189,1.87323 -0.191339,0.134646 -0.106299,0.400394 0.0980315,0.390945 0.553937,-0.0271654 1.10787,-0.0555118 1.66181,-0.0826772l0 0z"/>
  </g>
 </g>
</svg>
