<?xml version="1.0" encoding="UTF-8"?>
<!DOCTYPE svg PUBLIC "-//W3C//DTD SVG 1.1//EN" "http://www.w3.org/Graphics/SVG/1.1/DTD/svg11.dtd">
<!-- Creator: CorelDRAW -->
<svg xmlns="http://www.w3.org/2000/svg" xml:space="preserve" width="30px" height="30px" style="shape-rendering:geometricPrecision; text-rendering:geometricPrecision; image-rendering:optimizeQuality; fill-rule:evenodd; clip-rule:evenodd"
viewBox="0 0 30 29.9976"
 xmlns:xlink="http://www.w3.org/1999/xlink">
 <defs>
  <style type="text/css">
   <![CDATA[
    .fil0 {fill:none}
    .fil1 {fill:#2FA3DC}
   ]]>
  </style>
 </defs>
 <g id="Layer_x0020_1">
  <metadata id="CorelCorpID_0Corel-Layer"/>
  <rect class="fil0" x="0.000561758" y="-0.000561716" width="29.9989" height="29.9988"/>
  <path class="fil1" d="M10.3039 12.2693c0.193701,-0.271654 0.571654,-0.334252 0.843307,-0.13937 0.270472,0.194882 0.333071,0.571654 0.13937,0.842126 -0.611811,0.853937 -1.59213,2.23819 -2.40472,3.63661 -0.787795,1.35472 -1.43031,2.72362 -1.43031,3.61181 0,0.333071 -0.270472,0.604724 -0.604724,0.604724 -0.334252,0 -0.604724,-0.271654 -0.604724,-0.604724 0,-1.13386 0.715748,-2.70591 1.59449,-4.21654 0.852756,-1.46575 1.84724,-2.87126 2.46732,-3.73465l0 0zm1.69724 15.2291c-4.07126,0 -7.37126,-3.25866 -7.37126,-7.27795 0,-3.53858 4.63583,-9.27402 6.77835,-12.1701 0.295276,-0.398031 0.890551,-0.398031 1.18465,0 2.1437,2.89724 6.77953,8.63031 6.77953,12.1701 0,4.01929 -3.3,7.27795 -7.37126,7.27795l0 0zm8.11654 -21.9472c0.190157,-0.272835 0.565748,-0.340157 0.838583,-0.148819 0.272835,0.190157 0.338976,0.565748 0.148819,0.838583 -0.475984,0.682677 -0.950787,1.40669 -1.30748,2.07165 -0.322441,0.598819 -0.53622,1.11969 -0.53622,1.45157 0,0.333071 -0.270472,0.604724 -0.604724,0.604724 -0.334252,0 -0.604724,-0.271654 -0.604724,-0.604724 0,-0.550394 0.272835,-1.26024 0.682677,-2.02323 0.374409,-0.698031 0.877559,-1.46457 1.38307,-2.18976l0 0zm1.10669 8.35866c2.29016,0 4.14567,-1.85669 4.14567,-4.14567 0,-2.1248 -2.89252,-5.63268 -3.99567,-7.18819 -0.0354331,-0.0496063 -0.0885827,-0.0767717 -0.15,-0.0767717 -0.0625984,0 -0.114567,0.0271654 -0.151181,0.0767717 -1.10315,1.55433 -3.99567,5.06339 -3.99567,7.18819 0,2.28898 1.85669,4.14567 4.14685,4.14567l0 0z"/>
 </g>
</svg>
