<?xml version="1.0" encoding="UTF-8"?>
<!DOCTYPE svg PUBLIC "-//W3C//DTD SVG 1.1//EN" "http://www.w3.org/Graphics/SVG/1.1/DTD/svg11.dtd">
<!-- Creator: CorelDRAW -->
<svg xmlns="http://www.w3.org/2000/svg" xml:space="preserve" width="30px" height="30px" style="shape-rendering:geometricPrecision; text-rendering:geometricPrecision; image-rendering:optimizeQuality; fill-rule:evenodd; clip-rule:evenodd"
viewBox="0 0 30 30"
 xmlns:xlink="http://www.w3.org/1999/xlink">
 <defs>
  <style type="text/css">
   <![CDATA[
    .fil0 {fill:none}
    .fil1 {fill:#2AA1DA;fill-rule:nonzero}
   ]]>
  </style>
 </defs>
 <g id="Layer_x0020_1">
  <metadata id="CorelCorpID_0Corel-Layer"/>
  <rect class="fil0" x="0.000441551" width="30" height="30"/>
  <path class="fil1" d="M7.04173 24.0945l-3.51496 3.3378c-0.3,0.284646 -1.10079,-0.401575 -0.858661,-0.648425l3.1748 -3.22559c0.219685,-0.224409 0.382677,-0.501969 0.50315,-0.895276 0.0661417,-0.216142 0.312992,-0.441732 0.48189,-0.288189 0.405118,0.369685 0.682677,0.432283 1.26496,0.617717 0.232677,0.0744094 0.00472441,0.479528 -0.199606,0.556299 -0.248031,0.0933071 -0.574016,0.281102 -0.851575,0.545669l0 0zm7.55433 -14.7496l2.28661 -1.63346c0.147638,-0.105118 0.274016,-0.211417 0.416929,-0.579921 0.0188976,-0.0484252 0.0767717,-0.106299 0.147638,-0.158268 0.0968504,-0.069685 0.235039,-0.0295276 0.285827,0.0838583 0.168898,0.375591 0.414567,0.638976 0.759449,0.826772 0.124016,0.0673228 0.140551,0.237402 0.0318898,0.318898 -0.0295276,0.0224409 -0.0602362,0.0389764 -0.0897638,0.0496063 -0.259843,0.0944882 -0.494882,0.214961 -0.724016,0.362598l-2.08583 1.82598c-0.129921,0.114567 -0.250394,0.426378 -0.305906,0.592913 -0.0625984,0.184252 -0.248031,0.276378 -0.438189,0.214961 -0.65315,-0.210236 -0.960236,-0.473622 -1.16811,-1.20118 -0.057874,-0.204331 0.0283465,-0.413386 0.210236,-0.465354 0.222047,-0.0637795 0.480709,-0.100394 0.673228,-0.237402l0 0zm4.64764 -3.57283l0.719291 -0.58937c0.00826772,-0.00708661 0.0165354,-0.0129921 0.0248031,-0.0200787 0.0826772,-0.080315 0.152362,-0.168898 0.201969,-0.285827 0.0283465,-0.0673228 0.0909449,-0.108661 0.166535,-0.108661 0.0755906,0 0.140551,0.0413386 0.174803,0.109843 0.145276,0.28937 0.344882,0.50315 0.611811,0.66378 0.0614173,0.0366142 0.0968504,0.100394 0.0968504,0.17126 -0.0011811,0.0708661 -0.0377953,0.129921 -0.100394,0.16063 -0.0224409,0.0106299 -0.0448819,0.0200787 -0.0673228,0.0271654 -0.249213,0.0767717 -0.362598,0.167717 -0.537402,0.307087l-0.635433 0.520866c-0.127559,0.138189 -0.222047,0.284646 -0.295276,0.472441 -0.0566929,0.145276 -0.210236,0.219685 -0.36378,0.178346 -0.527953,-0.145276 -0.770079,-0.340157 -0.918898,-0.896457 -0.0425197,-0.155906 0.0366142,-0.311811 0.185433,-0.366142 0.250394,-0.0909449 0.494882,-0.199606 0.737008,-0.344882l0 0zm2.23346 -1.88976c-0.0555118,0.0188976 -0.111024,0.0354331 -0.167717,0.0519685 -0.134646,0.0389764 -0.214961,0.172441 -0.186614,0.312992 0.101575,0.50315 0.305906,0.689764 0.767717,0.848031 0.120472,0.0413386 0.245669,-0.0011811 0.312992,-0.100394 0.132283,-0.194882 0.275197,-0.340157 0.467717,-0.472441l0.799606 -0.549213c0.614173,-0.398031 0.011811,-1.29213 -0.61063,-0.88937l-1.00512 0.62126c-0.124016,0.0767717 -0.238583,0.131102 -0.379134,0.177165l0.0011811 0zm-4.57087 8.15669l2.24882 -1.47638c0.152362,-0.0992126 0.281102,-0.201969 0.437008,-0.564567 0.0212598,-0.0472441 0.080315,-0.103937 0.153543,-0.152362 0.0992126,-0.0661417 0.23622,-0.0212598 0.283465,0.092126 0.155906,0.381496 0.393307,0.65315 0.731102,0.852756 0.121654,0.0708661 0.133465,0.240945 0.0212598,0.318898 -0.0307087,0.0200787 -0.0625984,0.0366142 -0.0909449,0.046063 -0.264567,0.0862205 -0.50315,0.198425 -0.738189,0.337795l-2.05512 1.6748c-0.134646,0.109843 -0.263386,0.416929 -0.325984,0.579921 -0.069685,0.183071 -0.258661,0.26811 -0.446457,0.199606 -0.646063,-0.231496 -0.944882,-0.504331 -1.12913,-1.2378 -0.0507874,-0.205512 0.0425197,-0.411024 0.226772,-0.457087 0.224409,-0.0566929 0.484252,-0.0838583 0.682677,-0.21378l0.0011811 0zm4.69961 -3.32953l0.75 -0.550394c0.00944882,-0.00590551 0.0177165,-0.011811 0.0271654,-0.0177165 0.0874016,-0.0767717 0.16063,-0.161811 0.216142,-0.274016 0.0318898,-0.0673228 0.0968504,-0.103937 0.172441,-0.100394 0.0744094,0.00472441 0.13937,0.0484252 0.170079,0.11811 0.129921,0.296457 0.317717,0.520866 0.576378,0.693307 0.0602362,0.0401575 0.092126,0.105118 0.0874016,0.175984 -0.00354331,0.0708661 -0.0437008,0.127559 -0.10748,0.154724 -0.0224409,0.00944882 -0.0472441,0.0177165 -0.0685039,0.023622 -0.253937,0.0649606 -0.372047,0.147638 -0.553937,0.27874l-0.662598 0.486614c-0.134646,0.131102 -0.237402,0.270472 -0.320079,0.454724 -0.0637795,0.140551 -0.222047,0.207874 -0.373228,0.158268 -0.520866,-0.172441 -0.753543,-0.377953 -0.874016,-0.941339 -0.0330709,-0.158268 0.0543307,-0.309449 0.205512,-0.354331 0.255118,-0.0779528 0.504331,-0.174803 0.754724,-0.305906l0 0zm2.28071 -1.7811c-0.0555118,0.0188976 -0.111024,0.0366142 -0.167717,0.0543307 -0.134646,0.0401575 -0.212598,0.174803 -0.184252,0.315354 0.10748,0.501969 0.315354,0.68622 0.778346,0.838583 0.121654,0.0401575 0.24685,-0.00354331 0.312992,-0.103937 0.12874,-0.197244 0.271654,-0.343701 0.462992,-0.479528l0.79252 -0.558661c0.608268,-0.405118 -0.00472441,-1.29331 -0.622441,-0.882283l-0.998031 0.634252c-0.122835,0.0791339 -0.237402,0.133465 -0.375591,0.18189l0.0011811 0zm1.32402 3.01654c-0.0531496,0.0259843 -0.106299,0.0496063 -0.16063,0.0732283 -0.12874,0.0543307 -0.191339,0.197244 -0.146457,0.334252 0.159449,0.490157 0.383858,0.650787 0.859843,0.754724 0.124016,0.0259843 0.243307,-0.0307087 0.297638,-0.138189 0.106299,-0.210236 0.250394,-0.35315 0.406299,-0.527953l0.297638 -0.33189c0.558661,-0.470079 -0.142913,-1.29094 -0.709843,-0.81378l-0.49252 0.42874c-0.109843,0.0956693 -0.219685,0.158268 -0.351969,0.220866l0 0zm-1.47283 1.26024c0.092126,-0.069685 0.220866,-0.200787 0.276378,-0.312992 0.0330709,-0.0673228 0.0980315,-0.103937 0.172441,-0.100394 0.0744094,0.00354331 0.13937,0.0484252 0.170079,0.11811 0.129921,0.296457 0.317717,0.519685 0.577559,0.693307 0.0590551,0.0401575 0.0909449,0.105118 0.0862205,0.175984 -0.0023622,0.0708661 -0.0437008,0.127559 -0.10748,0.154724 -0.0224409,0.00944882 -0.046063,0.0177165 -0.0685039,0.023622 -0.253937,0.0637795 -0.372047,0.147638 -0.553937,0.27874 -0.327165,0.26811 -0.635433,0.46063 -0.814961,0.861024 -0.0637795,0.141732 -0.222047,0.207874 -0.374409,0.158268 -0.519685,-0.17126 -0.753543,-0.377953 -0.872835,-0.941339 -0.0330709,-0.157087 0.0543307,-0.308268 0.205512,-0.354331 0.764173,-0.231496 0.741732,-0.336614 1.30394,-0.754724zm-5.45787 3.39803l2.35394 -1.30984c0.159449,-0.0885827 0.295276,-0.180709 0.477165,-0.530315 0.023622,-0.046063 0.0874016,-0.0980315 0.162992,-0.141732 0.103937,-0.0590551 0.238583,-0.00472441 0.277559,0.112205 0.129921,0.389764 0.348425,0.676772 0.672047,0.898819 0.116929,0.0791339 0.116929,0.249213 -0.0011811,0.317717 -0.0307087,0.0188976 -0.0637795,0.0330709 -0.0944882,0.0401575 -0.269291,0.0661417 -0.517323,0.16063 -0.76063,0.282283l-2.17323 1.52244c-0.141732,0.0992126 -0.294094,0.395669 -0.367323,0.553937 -0.0814961,0.177165 -0.276378,0.248031 -0.46063,0.167717 -0.630709,-0.276378 -0.909449,-0.569291 -1.04173,-1.31102 -0.0377953,-0.209055 0.0708661,-0.405118 0.258661,-0.43937 0.227953,-0.0389764 0.490157,-0.0496063 0.69685,-0.162992l0 0zm0.894094 2.9185l2.29016 -0.877559c0.154724,-0.0590551 0.288189,-0.124016 0.496063,-0.414567 0.0283465,-0.0377953 0.0909449,-0.0767717 0.166535,-0.106299 0.101575,-0.0401575 0.214961,0.0259843 0.237402,0.134646 0.0685039,0.364961 0.230315,0.648425 0.496063,0.887008 0.0956693,0.0862205 0.0744094,0.237402 -0.0401575,0.285827 -0.0307087,0.011811 -0.0625984,0.0200787 -0.0909449,0.023622 -0.252756,0.0259843 -0.487795,0.0791339 -0.724016,0.158268l-2.15315 1.09016c-0.140551,0.0708661 -0.314173,0.316535 -0.400394,0.448819 -0.0956693,0.148819 -0.281102,0.187795 -0.437008,0.092126 -0.53622,-0.324803 -0.752362,-0.62126 -0.779528,-1.30157 -0.00826772,-0.190157 0.114567,-0.354331 0.288189,-0.360236 0.211417,-0.00708661 0.45,0.0177165 0.651969,-0.0602362l-0.0011811 0zm5.44252 -2.3563c0.0968504,-0.046063 0.23622,-0.142913 0.304724,-0.235039 0.0413386,-0.0543307 0.10748,-0.0767717 0.174803,-0.0602362 0.0685039,0.0165354 0.119291,0.0673228 0.135827,0.135827 0.0685039,0.288189 0.20315,0.522047 0.409843,0.721654 0.0472441,0.046063 0.0661417,0.109843 0.0507874,0.172441 -0.0165354,0.0625984 -0.0625984,0.10748 -0.125197,0.120472 -0.0224409,0.00472441 -0.0448819,0.00826772 -0.0673228,0.00944882 -0.242126,0.0165354 -0.364961,0.0708661 -0.552756,0.157087 -0.344882,0.186614 -0.657874,0.308268 -0.890551,0.636614 -0.0826772,0.116929 -0.238583,0.15 -0.368504,0.0791339 -0.446457,-0.242126 -0.623622,-0.467717 -0.637795,-0.994488 -0.00354331,-0.147638 0.101575,-0.26811 0.24685,-0.284646 0.737008,-0.0779528 0.734646,-0.175984 1.31929,-0.457087l0 -0.0011811zm1.54724 -0.727559c-0.0413386,0.0106299 -0.0850394,0.0200787 -0.125197,0.0283465 -0.101575,0.0200787 -0.168898,0.112205 -0.154724,0.216142 0.0413386,0.369685 0.18189,0.517323 0.507874,0.660236 0.0850394,0.0377953 0.180709,0.0141732 0.23622,-0.0531496 0.106299,-0.133465 0.230315,-0.21378 0.369685,-0.315354l0.263386 -0.191339c0.47126,-0.251575 0.0850394,-0.936614 -0.393307,-0.681496l-0.41811 0.231496c-0.0933071,0.0519685 -0.18189,0.080315 -0.285827,0.105118l0 0zm-20.1343 2.63622c0.485433,1.38425 -0.412205,1.50118 0.287008,2.88189l0.690945 1.36063c0.47126,0.930709 1.25197,0.941339 2.34921,0.924803 0.822047,-0.0129921 0.987402,0.79252 3.00472,-0.187795 -0.411024,-0.223228 -0.732283,-0.50315 -0.908268,-0.892913 -0.715748,-0.276378 -1.17165,-0.748819 -1.35472,-1.45157 -0.77126,-0.290551 -1.19882,-0.879921 -1.36654,-1.73031 -0.538583,-0.198425 -0.912992,-0.588189 -1.16339,-1.12205 -0.461811,0.0401575 -0.887008,-0.0590551 -1.25787,-0.33189 -0.229134,-0.168898 -0.454724,0.0519685 -0.279921,0.549213l-0.0011811 0zm0.485433 -3.1311l1.26496 -3.45118c0.0744094,-0.20315 0.111024,-0.387402 0.0507874,-0.872835 -0.057874,-0.468898 0.432283,-0.601181 0.596457,-0.442913 0.412205,0.39685 0.822047,0.752362 1.36654,0.757087 0.231496,0.0011811 0.366142,0.361417 0.238583,0.527953 -0.837402,1.09252 -1.61457,2.74961 -1.75157,4.1622 -0.0200787,0.207874 0.0153543,0.592913 0.0602362,0.809055 0.222047,-0.0850394 0.47126,-0.158268 0.634252,-0.329528l3.32835 -3.50669c0.144094,-0.151181 0.266929,-0.285827 0.389764,-0.726378 0.0507874,-0.180709 0.226772,-0.327165 0.392126,-0.235039 0.0188976,0.0106299 0.0330709,0.0259843 0.0425197,0.0448819 0.230315,0.490157 0.662598,0.934252 1.16929,1.13504 0.217323,0.0862205 0.172441,0.336614 -0.011811,0.432283 -0.282283,0.146457 -0.532677,0.318898 -0.772441,0.520866l-3.15354 3.55748c-0.113386,0.127559 -0.196063,0.422835 -0.242126,0.629528 0.133465,-0.0330709 0.261024,-0.0779528 0.366142,-0.158268l3.87047 -2.93976c0.166535,-0.127559 0.311811,-0.238583 0.50315,-0.650787 0.0791339,-0.17126 0.276378,-0.287008 0.426378,-0.168898 0.0177165,0.0141732 0.0283465,0.0307087 0.0354331,0.0507874 0.151181,0.517323 0.509055,1.02047 0.981496,1.29921 0.201969,0.119291 0.11811,0.357874 -0.080315,0.421654 -0.303543,0.0980315 -0.579921,0.227953 -0.849213,0.388583l-3.6874 3.01063c-0.0366142,0.0307087 -0.0732283,0.0744094 -0.109843,0.125197 0.119291,-0.0165354 0.233858,-0.046063 0.335433,-0.100394l3.69331 -2.00551c0.184252,-0.100394 0.340157,-0.196063 0.582283,-0.57874 0.100394,-0.157087 0.311811,-0.24685 0.447638,-0.112205 0.0153543,0.0153543 0.023622,0.0318898 0.0271654,0.0543307 0.0874016,0.527953 0.465354,1.0311 0.902362,1.36535 0.186614,0.142913 0.0732283,0.367323 -0.133465,0.406299 -0.315354,0.0590551 -0.605906,0.152362 -0.895276,0.276378l-3.4252 2.00315c0.0212598,-0.00472441 0.0425197,-0.0106299 0.0625984,-0.0188976l3.35079 -1.25906c0.166535,-0.0625984 0.315354,-0.111024 0.576378,-0.390945 0.10748,-0.115748 0.297638,-0.158268 0.390945,-0.0271654 0.0106299,0.0153543 0.0165354,0.0318898 0.0153543,0.0496063 -0.00590551,0.45 0.237402,0.923622 0.552756,1.26378 0.135827,0.146457 0.00708661,0.315354 -0.17126,0.316535 -0.274016,0.0011811 -0.531496,0.0354331 -0.793701,0.0944882l-3.31299 1.28031c-0.159449,0.0602362 -0.370866,0.304724 -0.475984,0.438189 -0.11811,0.147638 -0.303543,0.13937 -0.479528,0.0531496 -0.47126,-0.230315 -0.716929,-0.462992 -0.752362,-0.892913 -0.0448819,-0.00472441 -0.0909449,-0.0153543 -0.13937,-0.0295276 -0.744094,-0.21378 -1.11378,-0.581102 -1.15866,-1.41732 -0.816142,-0.134646 -1.22835,-0.535039 -1.33465,-1.53425 -0.00826772,-0.0744094 -0.00590551,-0.147638 0.00472441,-0.216142 -0.719291,-0.0484252 -1.12559,-0.408661 -1.37126,-1.31575 -0.00826772,-0.034252 -0.0153543,-0.0685039 -0.0212598,-0.101575 -0.757087,0.324803 -1.3122,0.161811 -1.96417,-0.713386 -0.155906,-0.210236 -0.224409,-0.465354 -0.0791339,-0.628346 0.177165,-0.198425 0.412205,-0.38622 0.509055,-0.651969l-0.0011811 0.0023622zm4.00039 -5.99173l0.467717 -0.970866c0.00472441,-0.0106299 0.00944882,-0.0224409 0.0141732,-0.0330709 0.0685039,-0.114567 0.148819,-0.214961 0.263386,-0.297638 0.0673228,-0.0484252 0.0968504,-0.131102 0.0779528,-0.219685 -0.0188976,-0.0885827 -0.0814961,-0.157087 -0.164173,-0.183071 -0.35315,-0.109843 -0.638976,-0.3 -0.881102,-0.581102 -0.0555118,-0.0649606 -0.133465,-0.0933071 -0.211417,-0.0779528 -0.0767717,0.0165354 -0.132283,0.0720472 -0.151181,0.152362 -0.00590551,0.0271654 -0.0106299,0.0566929 -0.011811,0.0850394 -0.023622,0.309449 -0.0933071,0.461811 -0.20315,0.69685l-0.474803 0.761811c-0.120472,0.177165 -0.256299,0.318898 -0.444094,0.446457 -0.144094,0.0956693 -0.188976,0.292913 -0.103937,0.465354 0.290551,0.590551 0.627165,0.930709 1.27441,0.989764 0.18189,0.0165354 0.333071,-0.109843 0.354331,-0.295276 0.0366142,-0.314173 0.0956693,-0.623622 0.193701,-0.938976l0 0zm1.2378 -3.02835c0.0023622,0.0625984 0.00590551,0.125197 0.0106299,0.187795 0.011811,0.15 -0.0850394,0.272835 -0.226772,0.28937 -0.505512,0.0566929 -0.752362,-0.0933071 -1.06535,-0.512598 -0.0814961,-0.109843 -0.0862205,-0.251575 -0.0165354,-0.350787 0.135827,-0.196063 0.219685,-0.387402 0.275197,-0.625984l0.230315 -0.987402c0.153543,-0.75 1.20472,-0.420472 1.04764,0.340157l-0.224409 1.2189c-0.0271654,0.151181 -0.0366142,0.283465 -0.0307087,0.440551zm-7.02756 18.1358l-1.79409 1.64409c-0.380315,0.348425 -0.40748,-0.459449 -0.40748,-1.2815 0,-0.822047 0.0602362,-1.30039 0.333071,-1.56969l0.493701 -0.488976c0.25748,-0.253937 0.500787,-0.884646 0.570472,-1.0748 0.3,-0.814961 1.34409,-1.07126 1.45512,-0.695669 0.366142,1.23898 0.457087,1.29803 1.10433,2.29252 0.133465,0.204331 -0.0106299,0.297638 -0.210236,0.385039 -0.242126,0.105118 -0.83622,0.140551 -1.54488,0.788976z"/>
 </g>
</svg>
